EESchema Schematic File Version 2
LIBS:power
LIBS:device
LIBS:transistors
LIBS:conn
LIBS:linear
LIBS:regul
LIBS:74xx
LIBS:cmos4000
LIBS:adc-dac
LIBS:memory
LIBS:xilinx
LIBS:microcontrollers
LIBS:dsp
LIBS:microchip
LIBS:analog_switches
LIBS:motorola
LIBS:texas
LIBS:intel
LIBS:audio
LIBS:interface
LIBS:digital-audio
LIBS:philips
LIBS:display
LIBS:cypress
LIBS:siliconi
LIBS:opto
LIBS:atmel
LIBS:contrib
LIBS:valves
LIBS:suf_digipot
LIBS:suf_power
LIBS:SineFilter-cache
EELAYER 25 0
EELAYER END
$Descr A4 11693 8268
encoding utf-8
Sheet 1 1
Title "Curve Tracer / Sine Wave Filter"
Date ""
Rev "001"
Comp ""
Comment1 ""
Comment2 ""
Comment3 ""
Comment4 ""
$EndDescr
$Comp
L R R4
U 1 1 5B5FD6F4
P 3700 3225
F 0 "R4" V 3780 3225 50  0000 C CNN
F 1 "2,2K" V 3700 3225 50  0000 C CNN
F 2 "Resistors_SMD:R_0603_HandSoldering" V 3630 3225 50  0001 C CNN
F 3 "" H 3700 3225 50  0001 C CNN
	1    3700 3225
	0    1    1    0   
$EndComp
$Comp
L R R7
U 1 1 5B5FD7A5
P 4100 3225
F 0 "R7" V 4180 3225 50  0000 C CNN
F 1 "22K" V 4100 3225 50  0000 C CNN
F 2 "Resistors_SMD:R_0603_HandSoldering" V 4030 3225 50  0001 C CNN
F 3 "" H 4100 3225 50  0001 C CNN
	1    4100 3225
	0    1    1    0   
$EndComp
$Comp
L C C2
U 1 1 5B5FD808
P 3900 3500
F 0 "C2" H 3925 3600 50  0000 L CNN
F 1 "680pF" H 3925 3400 50  0000 L CNN
F 2 "Capacitors_SMD:C_0603_HandSoldering" H 3938 3350 50  0001 C CNN
F 3 "" H 3900 3500 50  0001 C CNN
	1    3900 3500
	1    0    0    -1  
$EndComp
$Comp
L C C4
U 1 1 5B5FD89F
P 4300 3500
F 0 "C4" H 4325 3600 50  0000 L CNN
F 1 "68pF" H 4325 3400 50  0000 L CNN
F 2 "Capacitors_SMD:C_0603_HandSoldering" H 4338 3350 50  0001 C CNN
F 3 "" H 4300 3500 50  0001 C CNN
	1    4300 3500
	1    0    0    -1  
$EndComp
$Comp
L GNDREF #PWR01
U 1 1 5B5FDA5C
P 4300 3725
F 0 "#PWR01" H 4300 3475 50  0001 C CNN
F 1 "GNDREF" H 4300 3575 50  0000 C CNN
F 2 "" H 4300 3725 50  0001 C CNN
F 3 "" H 4300 3725 50  0001 C CNN
	1    4300 3725
	1    0    0    -1  
$EndComp
$Comp
L GNDREF #PWR02
U 1 1 5B5FDA8C
P 3900 3725
F 0 "#PWR02" H 3900 3475 50  0001 C CNN
F 1 "GNDREF" H 3900 3575 50  0000 C CNN
F 2 "" H 3900 3725 50  0001 C CNN
F 3 "" H 3900 3725 50  0001 C CNN
	1    3900 3725
	1    0    0    -1  
$EndComp
$Comp
L 4066 U1
U 3 1 5B5FEBA0
P 4875 2225
F 0 "U1" H 5075 2076 50  0000 C CNN
F 1 "SN74HC4066" H 5200 2425 50  0000 C CNN
F 2 "Housings_SOIC:SOIC-14_3.9x8.7mm_Pitch1.27mm" H 4875 2225 60  0001 C CNN
F 3 "" H 4875 2225 60  0001 C CNN
	3    4875 2225
	1    0    0    -1  
$EndComp
$Comp
L 4066 U1
U 2 1 5B5FEC61
P 4875 3225
F 0 "U1" H 5075 3076 50  0000 C CNN
F 1 "SN74HC4066" H 5175 2975 50  0000 C CNN
F 2 "Housings_SOIC:SOIC-14_3.9x8.7mm_Pitch1.27mm" H 4875 3225 60  0001 C CNN
F 3 "" H 4875 3225 60  0001 C CNN
	2    4875 3225
	1    0    0    -1  
$EndComp
Text GLabel 2625 2225 0    40   Input ~ 0
DAC_OUT
$Comp
L R R3
U 1 1 5B5FF072
P 3700 2225
F 0 "R3" V 3780 2225 50  0000 C CNN
F 1 "3,9K" V 3700 2225 50  0000 C CNN
F 2 "Resistors_SMD:R_0603_HandSoldering" V 3630 2225 50  0001 C CNN
F 3 "" H 3700 2225 50  0001 C CNN
	1    3700 2225
	0    1    1    0   
$EndComp
$Comp
L R R6
U 1 1 5B5FF078
P 4100 2225
F 0 "R6" V 4180 2225 50  0000 C CNN
F 1 "39K" V 4100 2225 50  0000 C CNN
F 2 "Resistors_SMD:R_0603_HandSoldering" V 4030 2225 50  0001 C CNN
F 3 "" H 4100 2225 50  0001 C CNN
	1    4100 2225
	0    1    1    0   
$EndComp
$Comp
L C C1
U 1 1 5B5FF07E
P 3900 2500
F 0 "C1" H 3925 2600 50  0000 L CNN
F 1 "10nF" H 3925 2400 50  0000 L CNN
F 2 "Capacitors_SMD:C_0603_HandSoldering" H 3938 2350 50  0001 C CNN
F 3 "" H 3900 2500 50  0001 C CNN
	1    3900 2500
	1    0    0    -1  
$EndComp
$Comp
L C C3
U 1 1 5B5FF084
P 4300 2500
F 0 "C3" H 4325 2600 50  0000 L CNN
F 1 "1nF" H 4325 2400 50  0000 L CNN
F 2 "Capacitors_SMD:C_0603_HandSoldering" H 4338 2350 50  0001 C CNN
F 3 "" H 4300 2500 50  0001 C CNN
	1    4300 2500
	1    0    0    -1  
$EndComp
$Comp
L GNDREF #PWR03
U 1 1 5B5FF08A
P 4300 2725
F 0 "#PWR03" H 4300 2475 50  0001 C CNN
F 1 "GNDREF" H 4300 2575 50  0000 C CNN
F 2 "" H 4300 2725 50  0001 C CNN
F 3 "" H 4300 2725 50  0001 C CNN
	1    4300 2725
	1    0    0    -1  
$EndComp
$Comp
L GNDREF #PWR04
U 1 1 5B5FF090
P 3900 2725
F 0 "#PWR04" H 3900 2475 50  0001 C CNN
F 1 "GNDREF" H 3900 2575 50  0000 C CNN
F 2 "" H 3900 2725 50  0001 C CNN
F 3 "" H 3900 2725 50  0001 C CNN
	1    3900 2725
	1    0    0    -1  
$EndComp
$Comp
L 4066 U1
U 4 1 5B5FF2B6
P 3150 2225
F 0 "U1" H 3350 2076 50  0000 C CNN
F 1 "SN74HC4066" H 3475 2425 50  0000 C CNN
F 2 "Housings_SOIC:SOIC-14_3.9x8.7mm_Pitch1.27mm" H 3150 2225 60  0001 C CNN
F 3 "" H 3150 2225 60  0001 C CNN
	4    3150 2225
	1    0    0    -1  
$EndComp
$Comp
L 4066 U1
U 1 1 5B5FF327
P 3150 3225
F 0 "U1" H 3350 3076 50  0000 C CNN
F 1 "SN74HC4066" H 3500 3400 50  0000 C CNN
F 2 "Housings_SOIC:SOIC-14_3.9x8.7mm_Pitch1.27mm" H 3150 3225 60  0001 C CNN
F 3 "" H 3150 3225 60  0001 C CNN
	1    3150 3225
	1    0    0    -1  
$EndComp
$Comp
L GND #PWR05
U 1 1 5B5FF3A1
P 3150 3525
F 0 "#PWR05" H 3150 3275 50  0001 C CNN
F 1 "GND" H 3150 3375 50  0000 C CNN
F 2 "" H 3150 3525 50  0001 C CNN
F 3 "" H 3150 3525 50  0001 C CNN
	1    3150 3525
	1    0    0    -1  
$EndComp
$Comp
L GND #PWR06
U 1 1 5B5FF3E1
P 4875 3525
F 0 "#PWR06" H 4875 3275 50  0001 C CNN
F 1 "GND" H 4875 3375 50  0000 C CNN
F 2 "" H 4875 3525 50  0001 C CNN
F 3 "" H 4875 3525 50  0001 C CNN
	1    4875 3525
	1    0    0    -1  
$EndComp
$Comp
L GND #PWR07
U 1 1 5B5FF421
P 4875 2525
F 0 "#PWR07" H 4875 2275 50  0001 C CNN
F 1 "GND" H 4875 2375 50  0000 C CNN
F 2 "" H 4875 2525 50  0001 C CNN
F 3 "" H 4875 2525 50  0001 C CNN
	1    4875 2525
	1    0    0    -1  
$EndComp
$Comp
L GND #PWR08
U 1 1 5B5FF461
P 3150 2525
F 0 "#PWR08" H 3150 2275 50  0001 C CNN
F 1 "GND" H 3150 2375 50  0000 C CNN
F 2 "" H 3150 2525 50  0001 C CNN
F 3 "" H 3150 2525 50  0001 C CNN
	1    3150 2525
	1    0    0    -1  
$EndComp
$Comp
L +3.3V #PWR09
U 1 1 5B5FF4A1
P 3150 1925
F 0 "#PWR09" H 3150 1775 50  0001 C CNN
F 1 "+3.3V" H 3150 2065 50  0000 C CNN
F 2 "" H 3150 1925 50  0001 C CNN
F 3 "" H 3150 1925 50  0001 C CNN
	1    3150 1925
	1    0    0    -1  
$EndComp
$Comp
L +3.3V #PWR010
U 1 1 5B5FF4E1
P 4875 1925
F 0 "#PWR010" H 4875 1775 50  0001 C CNN
F 1 "+3.3V" H 4875 2065 50  0000 C CNN
F 2 "" H 4875 1925 50  0001 C CNN
F 3 "" H 4875 1925 50  0001 C CNN
	1    4875 1925
	1    0    0    -1  
$EndComp
$Comp
L +3.3V #PWR011
U 1 1 5B5FFCC1
P 3150 2925
F 0 "#PWR011" H 3150 2775 50  0001 C CNN
F 1 "+3.3V" H 3150 3065 50  0000 C CNN
F 2 "" H 3150 2925 50  0001 C CNN
F 3 "" H 3150 2925 50  0001 C CNN
	1    3150 2925
	1    0    0    -1  
$EndComp
$Comp
L +3.3V #PWR012
U 1 1 5B5FFE4F
P 4875 2925
F 0 "#PWR012" H 4875 2775 50  0001 C CNN
F 1 "+3.3V" H 4875 3065 50  0000 C CNN
F 2 "" H 4875 2925 50  0001 C CNN
F 3 "" H 4875 2925 50  0001 C CNN
	1    4875 2925
	1    0    0    -1  
$EndComp
$Comp
L MCP23008 U2
U 1 1 5B60010D
P 3950 5350
F 0 "U2" V 3700 4675 50  0000 R CNN
F 1 "MCP23008" V 3600 4700 50  0000 R CNN
F 2 "Housings_SOIC:SOIC-18W_7.5x11.6mm_Pitch1.27mm" H 4000 4700 50  0001 L CNN
F 3 "" H 4200 5950 50  0001 C CNN
	1    3950 5350
	0    1    1    0   
$EndComp
Text GLabel 3850 5950 3    40   Input ~ 0
SDA
Text GLabel 3950 5950 3    40   Input ~ 0
SCL
$Comp
L +3.3V #PWR013
U 1 1 5B60315A
P 4750 5225
F 0 "#PWR013" H 4750 5075 50  0001 C CNN
F 1 "+3.3V" H 4750 5365 50  0000 C CNN
F 2 "" H 4750 5225 50  0001 C CNN
F 3 "" H 4750 5225 50  0001 C CNN
	1    4750 5225
	1    0    0    -1  
$EndComp
$Comp
L GND #PWR014
U 1 1 5B60319C
P 3175 5450
F 0 "#PWR014" H 3175 5200 50  0001 C CNN
F 1 "GND" H 3175 5300 50  0000 C CNN
F 2 "" H 3175 5450 50  0001 C CNN
F 3 "" H 3175 5450 50  0001 C CNN
	1    3175 5450
	1    0    0    -1  
$EndComp
$Comp
L Jumper_NC_Small JP1
U 1 1 5B6044FB
P 3200 5975
F 0 "JP1" H 3200 6055 50  0000 C CNN
F 1 "A2" H 3050 6050 50  0000 C CNN
F 2 "Pin_Headers:Pin_Header_Straight_1x02_Pitch2.54mm" H 3200 5975 50  0001 C CNN
F 3 "" H 3200 5975 50  0001 C CNN
	1    3200 5975
	1    0    0    -1  
$EndComp
$Comp
L Jumper_NC_Small JP2
U 1 1 5B6045C8
P 3200 6125
F 0 "JP2" H 3200 6205 50  0000 C CNN
F 1 "A1" H 3050 6200 50  0000 C CNN
F 2 "Pin_Headers:Pin_Header_Straight_1x02_Pitch2.54mm" H 3200 6125 50  0001 C CNN
F 3 "" H 3200 6125 50  0001 C CNN
	1    3200 6125
	1    0    0    -1  
$EndComp
$Comp
L Jumper_NC_Small JP3
U 1 1 5B60464D
P 3200 6275
F 0 "JP3" H 3200 6355 50  0000 C CNN
F 1 "A0" H 3050 6350 50  0000 C CNN
F 2 "Pin_Headers:Pin_Header_Straight_1x02_Pitch2.54mm" H 3200 6275 50  0001 C CNN
F 3 "" H 3200 6275 50  0001 C CNN
	1    3200 6275
	1    0    0    -1  
$EndComp
Wire Wire Line
	4250 3225 4575 3225
Wire Wire Line
	4300 3650 4300 3725
Wire Wire Line
	3900 3650 3900 3725
Wire Wire Line
	3850 3225 3950 3225
Wire Wire Line
	3900 3350 3900 3225
Connection ~ 3900 3225
Wire Wire Line
	3450 3225 3550 3225
Wire Wire Line
	4300 3350 4300 3225
Connection ~ 4300 3225
Wire Wire Line
	4250 2225 4575 2225
Wire Wire Line
	4300 2650 4300 2725
Wire Wire Line
	3900 2650 3900 2725
Wire Wire Line
	3850 2225 3950 2225
Wire Wire Line
	3900 2350 3900 2225
Connection ~ 3900 2225
Wire Wire Line
	3450 2225 3550 2225
Wire Wire Line
	4300 2350 4300 2225
Connection ~ 4300 2225
Wire Wire Line
	5175 2225 5350 2225
Wire Wire Line
	5350 2225 5350 3225
Wire Wire Line
	5350 3225 5175 3225
Connection ~ 5350 2700
Wire Wire Line
	2625 2225 2850 2225
Wire Wire Line
	3150 1925 3150 1975
Wire Wire Line
	4875 1925 4875 1975
Wire Wire Line
	4875 2925 4875 2975
Wire Wire Line
	3150 2925 3150 2975
Wire Wire Line
	3150 2475 3150 2525
Wire Wire Line
	4875 2475 4875 2525
Wire Wire Line
	3150 3475 3150 3525
Wire Wire Line
	4875 3475 4875 3525
Wire Wire Line
	2850 3375 2850 4150
Wire Wire Line
	2850 4150 4575 4150
Wire Wire Line
	4575 4150 4575 3375
Wire Wire Line
	4250 4850 4250 4150
Connection ~ 4250 4150
Wire Wire Line
	4575 2375 4500 2375
Wire Wire Line
	4500 2375 4500 4075
Wire Wire Line
	4500 4075 2775 4075
Wire Wire Line
	2775 4075 2775 2375
Wire Wire Line
	2775 2375 2850 2375
Wire Wire Line
	2850 3225 2700 3225
Wire Wire Line
	2700 3225 2700 2225
Connection ~ 2700 2225
Wire Wire Line
	4150 4850 4150 4075
Connection ~ 4150 4075
Wire Wire Line
	3850 5850 3850 5950
Wire Wire Line
	3950 5850 3950 5950
Wire Wire Line
	4550 5350 4750 5350
Wire Wire Line
	4750 5225 4750 5425
Wire Wire Line
	3250 5350 3175 5350
Wire Wire Line
	3175 5350 3175 5450
Wire Wire Line
	4350 5850 4350 5925
Wire Wire Line
	4350 5925 4750 5925
Wire Wire Line
	4750 5925 4750 5725
Connection ~ 4750 5350
Wire Wire Line
	3450 5850 3375 5850
Wire Wire Line
	3375 5850 3375 6325
Wire Wire Line
	3550 5850 3550 6325
Wire Wire Line
	3650 5850 3725 5850
Wire Wire Line
	3725 5850 3725 6325
Wire Wire Line
	3300 5975 3375 5975
Connection ~ 3375 5975
Wire Wire Line
	3300 6125 3550 6125
Connection ~ 3550 6125
Wire Wire Line
	3300 6275 3725 6275
Connection ~ 3725 6275
$Comp
L GND #PWR015
U 1 1 5B607AA1
P 3550 6725
F 0 "#PWR015" H 3550 6475 50  0001 C CNN
F 1 "GND" H 3550 6575 50  0000 C CNN
F 2 "" H 3550 6725 50  0001 C CNN
F 3 "" H 3550 6725 50  0001 C CNN
	1    3550 6725
	1    0    0    -1  
$EndComp
$Comp
L +3.3V #PWR016
U 1 1 5B607AFD
P 2925 5850
F 0 "#PWR016" H 2925 5700 50  0001 C CNN
F 1 "+3.3V" H 2925 5990 50  0000 C CNN
F 2 "" H 2925 5850 50  0001 C CNN
F 3 "" H 2925 5850 50  0001 C CNN
	1    2925 5850
	1    0    0    -1  
$EndComp
Wire Wire Line
	2925 5850 2925 6275
Wire Wire Line
	2925 6275 3100 6275
Wire Wire Line
	3100 6125 2925 6125
Connection ~ 2925 6125
Wire Wire Line
	3100 5975 2925 5975
Connection ~ 2925 5975
Wire Wire Line
	3375 6625 3375 6675
Wire Wire Line
	3375 6675 3725 6675
Wire Wire Line
	3725 6675 3725 6625
Wire Wire Line
	3550 6625 3550 6725
Connection ~ 3550 6675
$Comp
L R R8
U 1 1 5B60E2AF
P 4750 5575
F 0 "R8" V 4830 5575 50  0000 C CNN
F 1 "10K" V 4750 5575 50  0000 C CNN
F 2 "Resistors_SMD:R_0603_HandSoldering" V 4680 5575 50  0001 C CNN
F 3 "" H 4750 5575 50  0001 C CNN
	1    4750 5575
	1    0    0    -1  
$EndComp
$Comp
L R R1
U 1 1 5B60E557
P 3375 6475
F 0 "R1" V 3455 6475 50  0000 C CNN
F 1 "10K" V 3375 6475 50  0000 C CNN
F 2 "Resistors_SMD:R_0603_HandSoldering" V 3305 6475 50  0001 C CNN
F 3 "" H 3375 6475 50  0001 C CNN
	1    3375 6475
	1    0    0    -1  
$EndComp
$Comp
L R R2
U 1 1 5B60E64B
P 3550 6475
F 0 "R2" V 3630 6475 50  0000 C CNN
F 1 "10K" V 3550 6475 50  0000 C CNN
F 2 "Resistors_SMD:R_0603_HandSoldering" V 3480 6475 50  0001 C CNN
F 3 "" H 3550 6475 50  0001 C CNN
	1    3550 6475
	1    0    0    -1  
$EndComp
$Comp
L R R5
U 1 1 5B60E6F0
P 3725 6475
F 0 "R5" V 3805 6475 50  0000 C CNN
F 1 "10K" V 3725 6475 50  0000 C CNN
F 2 "Resistors_SMD:R_0603_HandSoldering" V 3655 6475 50  0001 C CNN
F 3 "" H 3725 6475 50  0001 C CNN
	1    3725 6475
	1    0    0    -1  
$EndComp
$Comp
L CONN_01X05 J1
U 1 1 5B61C678
P 3300 1175
F 0 "J1" H 3300 1475 50  0000 C CNN
F 1 "CPU" H 3300 875 50  0000 C CNN
F 2 "suf_connector_ncw:CONN_NCW254-05S" H 3300 1175 50  0001 C CNN
F 3 "" H 3300 1175 50  0001 C CNN
	1    3300 1175
	1    0    0    -1  
$EndComp
$Comp
L GND #PWR017
U 1 1 5B61D327
P 3050 1450
F 0 "#PWR017" H 3050 1200 50  0001 C CNN
F 1 "GND" H 3050 1300 50  0000 C CNN
F 2 "" H 3050 1450 50  0001 C CNN
F 3 "" H 3050 1450 50  0001 C CNN
	1    3050 1450
	1    0    0    -1  
$EndComp
Text GLabel 3000 1275 0    40   Input ~ 0
DAC_OUT
Text GLabel 3000 1075 0    40   Input ~ 0
SDA
Text GLabel 3000 1175 0    40   Input ~ 0
SCL
Text GLabel 3000 975  0    40   Input ~ 0
WLAT
Wire Wire Line
	3100 975  3000 975 
Wire Wire Line
	3100 1075 3000 1075
Wire Wire Line
	3100 1175 3000 1175
Wire Wire Line
	3100 1275 3000 1275
Wire Wire Line
	3100 1375 3050 1375
Wire Wire Line
	3050 1375 3050 1450
$Comp
L CONN_01X02 J2
U 1 1 5B61D923
P 4375 1225
F 0 "J2" H 4375 1400 50  0000 C CNN
F 1 "POWER" H 4375 1050 50  0000 C CNN
F 2 "suf_connector_ncw:CONN_NCW254-02S" H 4375 1225 50  0001 C CNN
F 3 "" H 4375 1225 50  0001 C CNN
	1    4375 1225
	1    0    0    -1  
$EndComp
$Comp
L CONN_01X02 J3
U 1 1 5B61F394
P 5825 2750
F 0 "J3" H 5825 2900 50  0000 C CNN
F 1 "OUT" H 5825 2600 50  0000 C CNN
F 2 "suf_connector_ncw:CONN_NCW396-02S" H 5825 2750 50  0001 C CNN
F 3 "" H 5825 2750 50  0001 C CNN
	1    5825 2750
	1    0    0    -1  
$EndComp
$Comp
L GND #PWR018
U 1 1 5B61F4E0
P 5575 2850
F 0 "#PWR018" H 5575 2600 50  0001 C CNN
F 1 "GND" H 5575 2700 50  0000 C CNN
F 2 "" H 5575 2850 50  0001 C CNN
F 3 "" H 5575 2850 50  0001 C CNN
	1    5575 2850
	1    0    0    -1  
$EndComp
Wire Wire Line
	5625 2800 5575 2800
Wire Wire Line
	5575 2800 5575 2850
Wire Wire Line
	5625 2700 5350 2700
$Comp
L C C6
U 1 1 5B620742
P 6125 6050
F 0 "C6" H 6150 6150 50  0000 L CNN
F 1 "10uF/6.3V" V 6050 6125 50  0000 L CNN
F 2 "Capacitors_SMD:C_0603_HandSoldering" H 6163 5900 50  0001 C CNN
F 3 "" H 6125 6050 50  0001 C CNN
	1    6125 6050
	1    0    0    -1  
$EndComp
$Comp
L GND #PWR019
U 1 1 5B620C03
P 5800 6300
F 0 "#PWR019" H 5800 6050 50  0001 C CNN
F 1 "GND" H 5800 6150 50  0000 C CNN
F 2 "" H 5800 6300 50  0001 C CNN
F 3 "" H 5800 6300 50  0001 C CNN
	1    5800 6300
	1    0    0    -1  
$EndComp
$Comp
L C C5
U 1 1 5B6239F6
P 5800 6050
F 0 "C5" H 5825 6150 50  0000 L CNN
F 1 "10uF/6.3V" V 5725 6125 50  0000 L CNN
F 2 "Capacitors_SMD:C_0603_HandSoldering" H 5838 5900 50  0001 C CNN
F 3 "" H 5800 6050 50  0001 C CNN
	1    5800 6050
	1    0    0    -1  
$EndComp
Wire Wire Line
	6125 6250 5800 6250
Wire Wire Line
	5800 6200 5800 6300
Connection ~ 5800 6250
Wire Wire Line
	6125 6200 6125 6250
Wire Notes Line
	6300 5800 6300 7000
Wire Notes Line
	5975 5800 5975 7000
Text Notes 6175 7000 1    40   ~ 0
SN74HC4066
Text Notes 5825 6925 1    40   ~ 0
MCP23008
$Comp
L +3.3V #PWR020
U 1 1 5B628DDD
P 5800 5625
F 0 "#PWR020" H 5800 5475 50  0001 C CNN
F 1 "+3.3V" H 5800 5765 50  0000 C CNN
F 2 "" H 5800 5625 50  0001 C CNN
F 3 "" H 5800 5625 50  0001 C CNN
	1    5800 5625
	1    0    0    -1  
$EndComp
Wire Wire Line
	5800 5625 5800 5900
Wire Wire Line
	6125 5675 5800 5675
Connection ~ 5800 5675
Wire Wire Line
	6125 5900 6125 5675
Text Notes 3950 2125 0    40   ~ 0
4KHz
Text Notes 3950 3150 0    40   ~ 0
100kHz
$Comp
L +3.3V #PWR021
U 1 1 5B62B365
P 3725 900
F 0 "#PWR021" H 3725 750 50  0001 C CNN
F 1 "+3.3V" H 3725 1040 50  0000 C CNN
F 2 "" H 3725 900 50  0001 C CNN
F 3 "" H 3725 900 50  0001 C CNN
	1    3725 900 
	1    0    0    -1  
$EndComp
$Comp
L GND #PWR022
U 1 1 5B62B3D9
P 3925 1450
F 0 "#PWR022" H 3925 1200 50  0001 C CNN
F 1 "GND" H 3925 1300 50  0000 C CNN
F 2 "" H 3925 1450 50  0001 C CNN
F 3 "" H 3925 1450 50  0001 C CNN
	1    3925 1450
	1    0    0    -1  
$EndComp
Wire Wire Line
	4175 1275 3925 1275
Wire Wire Line
	3925 1275 3925 1450
Wire Wire Line
	4175 1175 3725 1175
Wire Wire Line
	3725 1175 3725 900 
$EndSCHEMATC
