EESchema Schematic File Version 4
LIBS:MeasureAmp-cache
EELAYER 26 0
EELAYER END
$Descr A4 11693 8268
encoding utf-8
Sheet 1 1
Title "Curve Tracer / Measure Amplifier"
Date "2018-10-03"
Rev "0003"
Comp ""
Comment1 ""
Comment2 ""
Comment3 ""
Comment4 ""
$EndDescr
$Comp
L suf_analog_switch:DG441 U1
U 1 1 5B56C4ED
P 5075 5825
F 0 "U1" H 5275 5680 50  0000 C CNN
F 1 "DG451" H 5275 5975 50  0000 C CNN
F 2 "Housings_SSOP:TSSOP-16_4.4x5mm_Pitch0.65mm" H 5075 5825 60  0001 C CNN
F 3 "" H 5075 5825 60  0001 C CNN
	1    5075 5825
	1    0    0    -1  
$EndComp
$Comp
L suf_analog_switch:DG441 U1
U 2 1 5B56C550
P 5750 5825
F 0 "U1" H 5950 5680 50  0000 C CNN
F 1 "DG451" H 5925 6000 50  0000 C CNN
F 2 "Housings_SSOP:TSSOP-16_4.4x5mm_Pitch0.65mm" H 5750 5825 60  0001 C CNN
F 3 "" H 5750 5825 60  0001 C CNN
	2    5750 5825
	1    0    0    -1  
$EndComp
$Comp
L Device:R R5
U 1 1 5B56C5BB
P 5075 5250
F 0 "R5" V 5155 5250 50  0000 C CNN
F 1 "18K" V 5075 5250 50  0000 C CNN
F 2 "Resistors_SMD:R_0603_HandSoldering" V 5005 5250 50  0001 C CNN
F 3 "" H 5075 5250 50  0001 C CNN
	1    5075 5250
	0    1    1    0   
$EndComp
$Comp
L Device:R R6
U 1 1 5B56C6DA
P 5750 5250
F 0 "R6" V 5830 5250 50  0000 C CNN
F 1 "180K" V 5750 5250 50  0000 C CNN
F 2 "Resistors_SMD:R_0603_HandSoldering" V 5680 5250 50  0001 C CNN
F 3 "" H 5750 5250 50  0001 C CNN
	1    5750 5250
	0    1    1    0   
$EndComp
$Comp
L Device:R R4
U 1 1 5B56C715
P 4550 5250
F 0 "R4" V 4630 5250 50  0000 C CNN
F 1 "1,8K" V 4550 5250 50  0000 C CNN
F 2 "Resistors_SMD:R_0603_HandSoldering" V 4480 5250 50  0001 C CNN
F 3 "" H 4550 5250 50  0001 C CNN
	1    4550 5250
	0    1    1    0   
$EndComp
$Comp
L Device:R R3
U 1 1 5B56C745
P 4325 5575
F 0 "R3" V 4405 5575 50  0000 C CNN
F 1 "200" V 4325 5575 50  0000 C CNN
F 2 "Resistors_SMD:R_0603_HandSoldering" V 4255 5575 50  0001 C CNN
F 3 "" H 4325 5575 50  0001 C CNN
	1    4325 5575
	-1   0    0    1   
$EndComp
$Comp
L suf_analog_switch:DG441 U1
U 3 1 5B56C8CB
P 4325 6125
F 0 "U1" H 4525 5980 50  0000 C CNN
F 1 "DG451" H 4525 6275 50  0000 C CNN
F 2 "Housings_SSOP:TSSOP-16_4.4x5mm_Pitch0.65mm" H 4325 6125 60  0001 C CNN
F 3 "" H 4325 6125 60  0001 C CNN
	3    4325 6125
	0    -1   1    0   
$EndComp
$Comp
L suf_analog_switch:DG441 U1
U 4 1 5B56CDC3
P 3775 6125
F 0 "U1" H 3975 5980 50  0000 C CNN
F 1 "DG451" H 3975 6275 50  0000 C CNN
F 2 "Housings_SSOP:TSSOP-16_4.4x5mm_Pitch0.65mm" H 3775 6125 60  0001 C CNN
F 3 "" H 3775 6125 60  0001 C CNN
	4    3775 6125
	0    -1   1    0   
$EndComp
$Comp
L Device:R R2
U 1 1 5B56D78F
P 3775 5575
F 0 "R2" V 3855 5575 50  0000 C CNN
F 1 "2K" V 3775 5575 50  0000 C CNN
F 2 "Resistors_SMD:R_0603_HandSoldering" V 3705 5575 50  0001 C CNN
F 3 "" H 3775 5575 50  0001 C CNN
	1    3775 5575
	-1   0    0    1   
$EndComp
$Comp
L Device:R R1
U 1 1 5B56D7EB
P 3600 4575
F 0 "R1" V 3680 4575 50  0000 C CNN
F 1 "18K" V 3600 4575 50  0000 C CNN
F 2 "Resistors_SMD:R_0603_HandSoldering" V 3530 4575 50  0001 C CNN
F 3 "" H 3600 4575 50  0001 C CNN
	1    3600 4575
	0    -1   -1   0   
$EndComp
Wire Wire Line
	3750 4575 3775 4575
Wire Wire Line
	3775 5425 3775 4575
Wire Wire Line
	3775 5725 3775 5825
Wire Wire Line
	4325 5825 4325 5725
Wire Wire Line
	4750 4775 4325 4775
Wire Wire Line
	4325 4775 4325 5025
Wire Wire Line
	4400 5250 4325 5250
Connection ~ 4325 5250
Wire Wire Line
	4700 5250 4775 5250
Wire Wire Line
	5225 5250 5425 5250
Wire Wire Line
	6050 4675 6050 5025
Wire Wire Line
	5350 4675 6050 4675
Wire Wire Line
	4775 5825 4775 5250
Connection ~ 4775 5250
Wire Wire Line
	5375 5825 5425 5825
Wire Wire Line
	5900 5250 6050 5250
Connection ~ 6050 5250
Text GLabel 3925 5725 1    40   Input ~ 0
BIT3
Text GLabel 4475 5725 1    40   Input ~ 0
BIT2
Text GLabel 4725 6050 3    40   Input ~ 0
BIT4
Text GLabel 5400 6050 3    40   Input ~ 0
BIT5
Wire Wire Line
	4725 6050 4725 5975
Wire Wire Line
	4725 5975 4775 5975
Wire Wire Line
	5400 6050 5400 5975
Wire Wire Line
	5400 5975 5450 5975
$Comp
L power:GND #PWR01
U 1 1 5B56E831
P 3775 6475
F 0 "#PWR01" H 3775 6225 50  0001 C CNN
F 1 "GND" H 3775 6325 50  0000 C CNN
F 2 "" H 3775 6475 50  0001 C CNN
F 3 "" H 3775 6475 50  0001 C CNN
	1    3775 6475
	1    0    0    -1  
$EndComp
$Comp
L power:GND #PWR02
U 1 1 5B56E85B
P 4325 6475
F 0 "#PWR02" H 4325 6225 50  0001 C CNN
F 1 "GND" H 4325 6325 50  0000 C CNN
F 2 "" H 4325 6475 50  0001 C CNN
F 3 "" H 4325 6475 50  0001 C CNN
	1    4325 6475
	1    0    0    -1  
$EndComp
Wire Wire Line
	3775 6425 3775 6475
Wire Wire Line
	4325 6425 4325 6475
Text GLabel 2600 4475 0    40   Input ~ 0
Vsense
Text GLabel 6150 4675 2    40   Input ~ 0
Vout
Connection ~ 6050 4675
Wire Wire Line
	3350 4575 3400 4575
Wire Wire Line
	5425 5825 5425 5250
Connection ~ 5425 5250
Connection ~ 5425 5825
$Comp
L Amplifier_Operational:LM324 U2
U 4 1 5B5AE6F1
P 3050 2875
F 0 "U2" H 3050 3075 50  0000 L CNN
F 1 "OPA4192 (OPA4197)" H 3050 2675 50  0000 L CNN
F 2 "Housings_SOIC:SOIC-14_3.9x8.7mm_Pitch1.27mm" H 3000 2975 50  0001 C CNN
F 3 "" H 3100 3075 50  0001 C CNN
	4    3050 2875
	1    0    0    -1  
$EndComp
Wire Wire Line
	3400 4975 2750 4975
Wire Wire Line
	2750 4975 2750 4675
Connection ~ 3400 4575
Wire Wire Line
	2600 4475 2750 4475
Wire Wire Line
	2750 2975 2750 3275
Wire Wire Line
	2750 3275 3400 3275
Wire Wire Line
	3400 3275 3400 2875
Wire Wire Line
	3400 2875 3350 2875
$Comp
L Device:R R7
U 1 1 5B5AEEA2
P 4500 2775
F 0 "R7" V 4580 2775 50  0000 C CNN
F 1 "20K" V 4500 2775 50  0000 C CNN
F 2 "Resistors_SMD:R_0603_HandSoldering" V 4430 2775 50  0001 C CNN
F 3 "" H 4500 2775 50  0001 C CNN
	1    4500 2775
	0    1    1    0   
$EndComp
$Comp
L Device:R R8
U 1 1 5B5AEFCA
P 4500 2975
F 0 "R8" V 4580 2975 50  0000 C CNN
F 1 "20K" V 4500 2975 50  0000 C CNN
F 2 "Resistors_SMD:R_0603_HandSoldering" V 4430 2975 50  0001 C CNN
F 3 "" H 4500 2975 50  0001 C CNN
	1    4500 2975
	0    1    1    0   
$EndComp
Wire Wire Line
	4650 2975 4700 2975
Wire Wire Line
	4700 2975 4700 3300
Connection ~ 4700 2975
Wire Wire Line
	4650 2775 4700 2775
Connection ~ 4700 2775
$Comp
L power:GND #PWR03
U 1 1 5B5AF81F
P 6575 2550
F 0 "#PWR03" H 6575 2300 50  0001 C CNN
F 1 "GND" H 6575 2400 50  0000 C CNN
F 2 "" H 6575 2550 50  0001 C CNN
F 3 "" H 6575 2550 50  0001 C CNN
	1    6575 2550
	1    0    0    -1  
$EndComp
Wire Wire Line
	3400 2775 4350 2775
Connection ~ 3400 2875
Wire Wire Line
	3400 3450 4350 3450
Wire Wire Line
	4350 3450 4350 2975
$Comp
L suf_analog_switch:DG441 U3
U 1 1 5B5B2FBD
P 5700 3825
F 0 "U3" H 5900 3680 50  0000 C CNN
F 1 "DG451" H 5900 3975 50  0000 C CNN
F 2 "Housings_SSOP:TSSOP-16_4.4x5mm_Pitch0.65mm" H 5700 3825 60  0001 C CNN
F 3 "" H 5700 3825 60  0001 C CNN
	1    5700 3825
	1    0    0    -1  
$EndComp
$Comp
L suf_analog_switch:DG441 U3
U 2 1 5B5B2FC3
P 6375 3825
F 0 "U3" H 6575 3680 50  0000 C CNN
F 1 "DG451" H 6550 4000 50  0000 C CNN
F 2 "Housings_SSOP:TSSOP-16_4.4x5mm_Pitch0.65mm" H 6375 3825 60  0001 C CNN
F 3 "" H 6375 3825 60  0001 C CNN
	2    6375 3825
	1    0    0    -1  
$EndComp
$Comp
L Device:R R12
U 1 1 5B5B2FC9
P 5700 3300
F 0 "R12" V 5780 3300 50  0000 C CNN
F 1 "18K" V 5700 3300 50  0000 C CNN
F 2 "Resistors_SMD:R_0603_HandSoldering" V 5630 3300 50  0001 C CNN
F 3 "" H 5700 3300 50  0001 C CNN
	1    5700 3300
	0    1    1    0   
$EndComp
$Comp
L Device:R R14
U 1 1 5B5B2FCF
P 6375 3300
F 0 "R14" V 6455 3300 50  0000 C CNN
F 1 "180K" V 6375 3300 50  0000 C CNN
F 2 "Resistors_SMD:R_0603_HandSoldering" V 6305 3300 50  0001 C CNN
F 3 "" H 6375 3300 50  0001 C CNN
	1    6375 3300
	0    1    1    0   
$EndComp
$Comp
L Device:R R10
U 1 1 5B5B2FD5
P 5175 3300
F 0 "R10" V 5255 3300 50  0000 C CNN
F 1 "2K" V 5175 3300 50  0000 C CNN
F 2 "Resistors_SMD:R_0603_HandSoldering" V 5105 3300 50  0001 C CNN
F 3 "" H 5175 3300 50  0001 C CNN
	1    5175 3300
	0    1    1    0   
$EndComp
Wire Wire Line
	5325 3300 5400 3300
Wire Wire Line
	5850 3300 6050 3300
Wire Wire Line
	5400 3825 5400 3300
Connection ~ 5400 3300
Wire Wire Line
	6000 3825 6050 3825
Text GLabel 5350 4050 3    40   Input ~ 0
BIT1
Text GLabel 6025 4050 3    40   Input ~ 0
BIT0
Wire Wire Line
	5350 4050 5350 3975
Wire Wire Line
	5350 3975 5400 3975
Wire Wire Line
	6025 4050 6025 3975
Wire Wire Line
	6025 3975 6075 3975
Wire Wire Line
	6050 3825 6050 3300
Connection ~ 6050 3300
Connection ~ 6050 3825
Wire Wire Line
	4700 1800 4925 1800
$Comp
L suf_analog_switch:DG441 U3
U 4 1 5B5B5579
P 5600 2300
F 0 "U3" H 5800 2155 50  0000 C CNN
F 1 "DG451" H 5800 2450 50  0000 C CNN
F 2 "Housings_SSOP:TSSOP-16_4.4x5mm_Pitch0.65mm" H 5600 2300 60  0001 C CNN
F 3 "" H 5600 2300 60  0001 C CNN
	4    5600 2300
	1    0    0    -1  
$EndComp
$Comp
L suf_analog_switch:DG441 U3
U 3 1 5B5B557F
P 6275 2300
F 0 "U3" H 6475 2155 50  0000 C CNN
F 1 "DG451" H 6450 2475 50  0000 C CNN
F 2 "Housings_SSOP:TSSOP-16_4.4x5mm_Pitch0.65mm" H 6275 2300 60  0001 C CNN
F 3 "" H 6275 2300 60  0001 C CNN
	3    6275 2300
	1    0    0    -1  
$EndComp
$Comp
L Device:R R11
U 1 1 5B5B5585
P 5600 1800
F 0 "R11" V 5680 1800 50  0000 C CNN
F 1 "18K" V 5600 1800 50  0000 C CNN
F 2 "Resistors_SMD:R_0603_HandSoldering" V 5530 1800 50  0001 C CNN
F 3 "" H 5600 1800 50  0001 C CNN
	1    5600 1800
	0    1    1    0   
$EndComp
$Comp
L Device:R R13
U 1 1 5B5B558B
P 6275 1800
F 0 "R13" V 6355 1800 50  0000 C CNN
F 1 "180K" V 6275 1800 50  0000 C CNN
F 2 "Resistors_SMD:R_0603_HandSoldering" V 6205 1800 50  0001 C CNN
F 3 "" H 6275 1800 50  0001 C CNN
	1    6275 1800
	0    1    1    0   
$EndComp
$Comp
L Device:R R9
U 1 1 5B5B5591
P 5075 1800
F 0 "R9" V 5155 1800 50  0000 C CNN
F 1 "2K" V 5075 1800 50  0000 C CNN
F 2 "Resistors_SMD:R_0603_HandSoldering" V 5005 1800 50  0001 C CNN
F 3 "" H 5075 1800 50  0001 C CNN
	1    5075 1800
	0    1    1    0   
$EndComp
Wire Wire Line
	5225 1800 5300 1800
Wire Wire Line
	5750 1800 5950 1800
Wire Wire Line
	5300 2300 5300 1800
Connection ~ 5300 1800
Wire Wire Line
	5900 2300 5950 2300
Text GLabel 5250 2525 3    40   Input ~ 0
BIT1
Text GLabel 5925 2525 3    40   Input ~ 0
BIT0
Wire Wire Line
	5250 2525 5250 2450
Wire Wire Line
	5250 2450 5300 2450
Wire Wire Line
	5925 2525 5925 2450
Wire Wire Line
	5925 2450 5975 2450
Wire Wire Line
	5950 2300 5950 1800
Connection ~ 5950 1800
Connection ~ 5950 2300
Wire Wire Line
	6425 1800 6575 1800
Wire Wire Line
	6575 1800 6575 2300
Connection ~ 6575 2300
Wire Wire Line
	4700 2775 4700 1800
Wire Wire Line
	3400 3450 3400 4575
Wire Wire Line
	5350 2875 6675 2875
Wire Wire Line
	6675 2875 6675 3300
Wire Wire Line
	6525 3300 6675 3300
Connection ~ 6675 3300
Text GLabel 2600 2775 0    40   Input ~ 0
Isense
Wire Wire Line
	2750 2775 2600 2775
Wire Wire Line
	4700 3300 5025 3300
$Comp
L power:+15V #PWR04
U 1 1 5B5BE3B4
P 1150 2350
F 0 "#PWR04" H 1150 2200 50  0001 C CNN
F 1 "+15V" H 1150 2490 50  0000 C CNN
F 2 "" H 1150 2350 50  0001 C CNN
F 3 "" H 1150 2350 50  0001 C CNN
	1    1150 2350
	1    0    0    -1  
$EndComp
$Comp
L power:+15V #PWR06
U 1 1 5B5C0A64
P 5600 2075
F 0 "#PWR06" H 5600 1925 50  0001 C CNN
F 1 "+15V" H 5600 2215 50  0000 C CNN
F 2 "" H 5600 2075 50  0001 C CNN
F 3 "" H 5600 2075 50  0001 C CNN
	1    5600 2075
	1    0    0    -1  
$EndComp
$Comp
L power:+15V #PWR07
U 1 1 5B5C0AAC
P 6275 2075
F 0 "#PWR07" H 6275 1925 50  0001 C CNN
F 1 "+15V" H 6275 2215 50  0000 C CNN
F 2 "" H 6275 2075 50  0001 C CNN
F 3 "" H 6275 2075 50  0001 C CNN
	1    6275 2075
	1    0    0    -1  
$EndComp
$Comp
L power:+15V #PWR09
U 1 1 5B5C0B3C
P 6375 3600
F 0 "#PWR09" H 6375 3450 50  0001 C CNN
F 1 "+15V" H 6375 3740 50  0000 C CNN
F 2 "" H 6375 3600 50  0001 C CNN
F 3 "" H 6375 3600 50  0001 C CNN
	1    6375 3600
	1    0    0    -1  
$EndComp
$Comp
L power:+15V #PWR012
U 1 1 5B5C19E4
P 3450 6025
F 0 "#PWR012" H 3450 5875 50  0001 C CNN
F 1 "+15V" H 3450 6165 50  0000 C CNN
F 2 "" H 3450 6025 50  0001 C CNN
F 3 "" H 3450 6025 50  0001 C CNN
	1    3450 6025
	1    0    0    -1  
$EndComp
$Comp
L power:+15V #PWR013
U 1 1 5B5C1A2C
P 4075 5800
F 0 "#PWR013" H 4075 5650 50  0001 C CNN
F 1 "+15V" H 4075 5940 50  0000 C CNN
F 2 "" H 4075 5800 50  0001 C CNN
F 3 "" H 4075 5800 50  0001 C CNN
	1    4075 5800
	1    0    0    -1  
$EndComp
$Comp
L power:+15V #PWR014
U 1 1 5B5C1A74
P 5075 5650
F 0 "#PWR014" H 5075 5500 50  0001 C CNN
F 1 "+15V" H 5075 5790 50  0000 C CNN
F 2 "" H 5075 5650 50  0001 C CNN
F 3 "" H 5075 5650 50  0001 C CNN
	1    5075 5650
	1    0    0    -1  
$EndComp
$Comp
L power:+15V #PWR015
U 1 1 5B5C1ABC
P 5750 5650
F 0 "#PWR015" H 5750 5500 50  0001 C CNN
F 1 "+15V" H 5750 5790 50  0000 C CNN
F 2 "" H 5750 5650 50  0001 C CNN
F 3 "" H 5750 5650 50  0001 C CNN
	1    5750 5650
	1    0    0    -1  
$EndComp
Wire Wire Line
	5075 5650 5075 5675
Wire Wire Line
	5750 5650 5750 5675
Wire Wire Line
	4075 5800 4075 6125
Wire Wire Line
	4075 6125 4175 6125
Wire Wire Line
	3450 6025 3450 6125
Wire Wire Line
	3450 6125 3625 6125
Wire Wire Line
	1150 2350 1150 2450
Text GLabel 6875 3300 2    40   Input ~ 0
Iout
$Comp
L power:-15V #PWR08
U 1 1 5B5C330F
P 1150 3225
F 0 "#PWR08" H 1150 3325 50  0001 C CNN
F 1 "-15V" H 1150 3375 50  0000 C CNN
F 2 "" H 1150 3225 50  0001 C CNN
F 3 "" H 1150 3225 50  0001 C CNN
	1    1150 3225
	-1   0    0    1   
$EndComp
$Comp
L power:-15V #PWR031
U 1 1 5B5C33E7
P 6275 2525
F 0 "#PWR031" H 6275 2625 50  0001 C CNN
F 1 "-15V" H 6275 2675 50  0000 C CNN
F 2 "" H 6275 2525 50  0001 C CNN
F 3 "" H 6275 2525 50  0001 C CNN
	1    6275 2525
	-1   0    0    1   
$EndComp
$Comp
L power:-15V #PWR027
U 1 1 5B5C38A7
P 5700 4050
F 0 "#PWR027" H 5700 4150 50  0001 C CNN
F 1 "-15V" H 5700 4200 50  0000 C CNN
F 2 "" H 5700 4050 50  0001 C CNN
F 3 "" H 5700 4050 50  0001 C CNN
	1    5700 4050
	-1   0    0    1   
$EndComp
$Comp
L power:-15V #PWR033
U 1 1 5B5C38EF
P 6375 4050
F 0 "#PWR033" H 6375 4150 50  0001 C CNN
F 1 "-15V" H 6375 4200 50  0000 C CNN
F 2 "" H 6375 4050 50  0001 C CNN
F 3 "" H 6375 4050 50  0001 C CNN
	1    6375 4050
	-1   0    0    1   
$EndComp
$Comp
L power:-15V #PWR029
U 1 1 5B5C3999
P 5750 6050
F 0 "#PWR029" H 5750 6150 50  0001 C CNN
F 1 "-15V" H 5750 6200 50  0000 C CNN
F 2 "" H 5750 6050 50  0001 C CNN
F 3 "" H 5750 6050 50  0001 C CNN
	1    5750 6050
	-1   0    0    1   
$EndComp
$Comp
L power:-15V #PWR017
U 1 1 5B5C3A29
P 4600 6225
F 0 "#PWR017" H 4600 6325 50  0001 C CNN
F 1 "-15V" H 4600 6375 50  0000 C CNN
F 2 "" H 4600 6225 50  0001 C CNN
F 3 "" H 4600 6225 50  0001 C CNN
	1    4600 6225
	-1   0    0    1   
$EndComp
Wire Wire Line
	1150 3050 1150 3225
Wire Wire Line
	5600 2450 5600 2525
Wire Wire Line
	6275 2450 6275 2525
Wire Wire Line
	5700 3600 5700 3675
Wire Wire Line
	6375 3600 6375 3675
Wire Wire Line
	5700 3975 5700 4050
Wire Wire Line
	6375 3975 6375 4050
Wire Wire Line
	5600 2075 5600 2150
Wire Wire Line
	6275 2075 6275 2150
Wire Wire Line
	5075 5975 5075 6050
Wire Wire Line
	5750 5975 5750 6050
$Comp
L Amplifier_Operational:LM324 U2
U 3 1 5B68CF39
P 5050 2875
F 0 "U2" H 5050 3075 50  0000 L CNN
F 1 "OPA4192 (OPA4197)" H 5050 2675 50  0000 L CNN
F 2 "Housings_SOIC:SOIC-14_3.9x8.7mm_Pitch1.27mm" H 5000 2975 50  0001 C CNN
F 3 "" H 5100 3075 50  0001 C CNN
	3    5050 2875
	1    0    0    -1  
$EndComp
$Comp
L Amplifier_Operational:LM324 U2
U 1 1 5B68D95B
P 3050 4575
F 0 "U2" H 3050 4775 50  0000 L CNN
F 1 "OPA4192 (OPA4197)" H 3050 4375 50  0000 L CNN
F 2 "Housings_SOIC:SOIC-14_3.9x8.7mm_Pitch1.27mm" H 3000 4675 50  0001 C CNN
F 3 "" H 3100 4775 50  0001 C CNN
	1    3050 4575
	1    0    0    -1  
$EndComp
$Comp
L Amplifier_Operational:LM324 U2
U 2 1 5B68D9DE
P 5050 4675
F 0 "U2" H 5050 4875 50  0000 L CNN
F 1 "OPA4192 (OPA4197)" H 5050 4475 50  0000 L CNN
F 2 "Housings_SOIC:SOIC-14_3.9x8.7mm_Pitch1.27mm" H 5000 4775 50  0001 C CNN
F 3 "" H 5100 4875 50  0001 C CNN
	2    5050 4675
	1    0    0    -1  
$EndComp
$Comp
L Connector_Generic:Conn_01x04 J1
U 1 1 5B6CD06A
P 1525 1225
F 0 "J1" H 1525 1525 50  0000 C CNN
F 1 "POWER" V 1625 1225 50  0000 C CNN
F 2 "suf_connector_ncw:CONN_NCW254-04S" H 1525 1225 50  0001 C CNN
F 3 "" H 1525 1225 50  0001 C CNN
	1    1525 1225
	1    0    0    -1  
$EndComp
$Comp
L Connector_Generic:Conn_01x03 J2
U 1 1 5B6CD0DB
P 2275 1125
F 0 "J2" H 2275 1325 50  0000 C CNN
F 1 "IN" V 2375 1125 50  0000 C CNN
F 2 "suf_connector_ncw:CONN_NCW254-03S" H 2275 1125 50  0001 C CNN
F 3 "" H 2275 1125 50  0001 C CNN
	1    2275 1125
	1    0    0    -1  
$EndComp
$Comp
L Connector_Generic:Conn_01x05 J3
U 1 1 5B6CE46C
P 3025 1150
F 0 "J3" H 3025 1450 50  0000 C CNN
F 1 "MCU" V 3125 1150 50  0000 C CNN
F 2 "suf_connector_ncw:CONN_NCW254-05S" H 3025 1150 50  0001 C CNN
F 3 "" H 3025 1150 50  0001 C CNN
	1    3025 1150
	1    0    0    -1  
$EndComp
$Comp
L Connector_Generic:Conn_01x03 J4
U 1 1 5B6CE4EB
P 3675 1075
F 0 "J4" H 3675 1275 50  0000 C CNN
F 1 "A_OUT" V 3775 1075 50  0000 C CNN
F 2 "suf_connector_ncw:CONN_NCW254-03S" H 3675 1075 50  0001 C CNN
F 3 "" H 3675 1075 50  0001 C CNN
	1    3675 1075
	1    0    0    -1  
$EndComp
$Comp
L microchip:MCP23008 U4
U 1 1 5B6CEBB4
P 9225 3450
F 0 "U4" H 9125 4075 50  0000 R CNN
F 1 "MCP23008" H 9125 4000 50  0000 R CNN
F 2 "Housings_SOIC:SOIC-18W_7.5x11.6mm_Pitch1.27mm" H 9275 2800 50  0001 L CNN
F 3 "" H 9475 4050 50  0001 C CNN
	1    9225 3450
	1    0    0    -1  
$EndComp
Text GLabel 7650 3150 0    40   Input ~ 0
BIT0
Text GLabel 7650 3250 0    40   Input ~ 0
BIT1
Text GLabel 7650 3350 0    40   Input ~ 0
BIT2
Text GLabel 7650 3450 0    40   Input ~ 0
BIT3
Text GLabel 7650 3550 0    40   Input ~ 0
BIT4
Text GLabel 7650 3650 0    40   Input ~ 0
BIT5
Wire Wire Line
	7650 3150 7800 3150
Wire Wire Line
	7650 3250 7925 3250
Wire Wire Line
	7650 3350 8050 3350
Wire Wire Line
	7650 3450 8175 3450
Wire Wire Line
	7650 3550 8300 3550
Wire Wire Line
	7650 3650 8425 3650
$Comp
L power:+15V #PWR016
U 1 1 5B6D027F
P 1225 1025
F 0 "#PWR016" H 1225 875 50  0001 C CNN
F 1 "+15V" H 1225 1165 50  0000 C CNN
F 2 "" H 1225 1025 50  0001 C CNN
F 3 "" H 1225 1025 50  0001 C CNN
	1    1225 1025
	1    0    0    -1  
$EndComp
Wire Wire Line
	1225 1550 1225 1425
Wire Wire Line
	1225 1425 1325 1425
Wire Wire Line
	1325 1325 1025 1325
Wire Wire Line
	1025 1325 1025 1550
Wire Wire Line
	1325 1125 1225 1125
Wire Wire Line
	1225 1125 1225 1025
Wire Wire Line
	1325 1225 975  1225
Wire Wire Line
	975  1225 975  1025
Text GLabel 1975 1025 0    40   Input ~ 0
Isense
Text GLabel 1975 1125 0    40   Input ~ 0
Vsense
$Comp
L power:GND #PWR018
U 1 1 5B6D2D68
P 1975 1300
F 0 "#PWR018" H 1975 1050 50  0001 C CNN
F 1 "GND" H 1975 1150 50  0000 C CNN
F 2 "" H 1975 1300 50  0001 C CNN
F 3 "" H 1975 1300 50  0001 C CNN
	1    1975 1300
	1    0    0    -1  
$EndComp
Wire Wire Line
	2075 1025 1975 1025
Wire Wire Line
	1975 1125 2075 1125
Wire Wire Line
	2075 1225 1975 1225
Wire Wire Line
	1975 1225 1975 1300
Text GLabel 2700 1150 0    40   Input ~ 0
SDA
Text GLabel 2700 1250 0    40   Input ~ 0
SCL
Text GLabel 9850 3450 2    40   Input ~ 0
SCL
Text GLabel 9850 3550 2    40   Input ~ 0
SDA
Wire Wire Line
	9850 3450 9725 3450
Wire Wire Line
	9850 3550 9725 3550
Wire Wire Line
	2825 1150 2700 1150
Wire Wire Line
	2825 1250 2700 1250
Wire Wire Line
	2750 1450 2750 1350
Wire Wire Line
	2750 1350 2825 1350
Text GLabel 3350 1075 0    40   Input ~ 0
Vout
Text GLabel 2700 950  0    40   Input ~ 0
Iout
Wire Wire Line
	2825 950  2700 950 
Wire Wire Line
	2825 1050 2700 1050
Text GLabel 3350 975  0    40   Input ~ 0
Iout
Text GLabel 2700 1050 0    40   Input ~ 0
Vout
Wire Wire Line
	3475 975  3350 975 
Wire Wire Line
	3475 1075 3350 1075
$Comp
L power:GND #PWR020
U 1 1 5B6D63F7
P 3375 1275
F 0 "#PWR020" H 3375 1025 50  0001 C CNN
F 1 "GND" H 3375 1125 50  0000 C CNN
F 2 "" H 3375 1275 50  0001 C CNN
F 3 "" H 3375 1275 50  0001 C CNN
	1    3375 1275
	1    0    0    -1  
$EndComp
Wire Wire Line
	3475 1175 3375 1175
Wire Wire Line
	3375 1175 3375 1275
$Comp
L power:GND #PWR021
U 1 1 5B6D8350
P 9225 4250
F 0 "#PWR021" H 9225 4000 50  0001 C CNN
F 1 "GND" H 9225 4100 50  0000 C CNN
F 2 "" H 9225 4250 50  0001 C CNN
F 3 "" H 9225 4250 50  0001 C CNN
	1    9225 4250
	1    0    0    -1  
$EndComp
Wire Wire Line
	9225 2750 9225 2775
Wire Wire Line
	9225 4150 9225 4250
$Comp
L Device:LED_Small D6
U 1 1 5B6D8E61
P 8425 4100
F 0 "D6" H 8475 4050 50  0000 L CNN
F 1 "LED" H 8250 4050 50  0000 L CNN
F 2 "LEDs:LED_0603_HandSoldering" V 8425 4100 50  0001 C CNN
F 3 "" V 8425 4100 50  0001 C CNN
	1    8425 4100
	0    -1   -1   0   
$EndComp
$Comp
L Device:R R20
U 1 1 5B6D8E67
P 8425 4400
F 0 "R20" V 8475 4200 50  0000 C CNN
F 1 "610" V 8425 4400 50  0000 C CNN
F 2 "Resistors_SMD:R_0603_HandSoldering" V 8355 4400 50  0001 C CNN
F 3 "" H 8425 4400 50  0001 C CNN
	1    8425 4400
	1    0    0    -1  
$EndComp
Wire Wire Line
	8425 4200 8425 4250
$Comp
L Device:LED_Small D5
U 1 1 5B6D8E6F
P 8300 4100
F 0 "D5" H 8350 4050 50  0000 L CNN
F 1 "LED" H 8125 4050 50  0000 L CNN
F 2 "LEDs:LED_0603_HandSoldering" V 8300 4100 50  0001 C CNN
F 3 "" V 8300 4100 50  0001 C CNN
	1    8300 4100
	0    -1   -1   0   
$EndComp
$Comp
L Device:R R19
U 1 1 5B6D8E75
P 8300 4400
F 0 "R19" V 8350 4200 50  0000 C CNN
F 1 "610" V 8300 4400 50  0000 C CNN
F 2 "Resistors_SMD:R_0603_HandSoldering" V 8230 4400 50  0001 C CNN
F 3 "" H 8300 4400 50  0001 C CNN
	1    8300 4400
	1    0    0    -1  
$EndComp
Wire Wire Line
	8300 4200 8300 4250
Wire Wire Line
	8300 4675 8300 4550
$Comp
L Device:LED_Small D4
U 1 1 5B6D8F63
P 8175 4100
F 0 "D4" H 8225 4050 50  0000 L CNN
F 1 "LED" H 8000 4050 50  0000 L CNN
F 2 "LEDs:LED_0603_HandSoldering" V 8175 4100 50  0001 C CNN
F 3 "" V 8175 4100 50  0001 C CNN
	1    8175 4100
	0    -1   -1   0   
$EndComp
$Comp
L Device:R R18
U 1 1 5B6D8F69
P 8175 4400
F 0 "R18" V 8225 4200 50  0000 C CNN
F 1 "610" V 8175 4400 50  0000 C CNN
F 2 "Resistors_SMD:R_0603_HandSoldering" V 8105 4400 50  0001 C CNN
F 3 "" H 8175 4400 50  0001 C CNN
	1    8175 4400
	1    0    0    -1  
$EndComp
Wire Wire Line
	8175 4200 8175 4250
Wire Wire Line
	8175 4675 8175 4550
$Comp
L Device:LED_Small D3
U 1 1 5B6D8F71
P 8050 4100
F 0 "D3" H 8100 4050 50  0000 L CNN
F 1 "LED" H 7875 4050 50  0000 L CNN
F 2 "LEDs:LED_0603_HandSoldering" V 8050 4100 50  0001 C CNN
F 3 "" V 8050 4100 50  0001 C CNN
	1    8050 4100
	0    -1   -1   0   
$EndComp
$Comp
L Device:R R17
U 1 1 5B6D8F77
P 8050 4400
F 0 "R17" V 8100 4200 50  0000 C CNN
F 1 "610" V 8050 4400 50  0000 C CNN
F 2 "Resistors_SMD:R_0603_HandSoldering" V 7980 4400 50  0001 C CNN
F 3 "" H 8050 4400 50  0001 C CNN
	1    8050 4400
	1    0    0    -1  
$EndComp
Wire Wire Line
	8050 4200 8050 4250
Wire Wire Line
	8050 4675 8050 4550
$Comp
L Device:LED_Small D2
U 1 1 5B6D8F7F
P 7925 4100
F 0 "D2" H 7975 4050 50  0000 L CNN
F 1 "LED" H 7750 4050 50  0000 L CNN
F 2 "LEDs:LED_0603_HandSoldering" V 7925 4100 50  0001 C CNN
F 3 "" V 7925 4100 50  0001 C CNN
	1    7925 4100
	0    -1   -1   0   
$EndComp
$Comp
L Device:R R16
U 1 1 5B6D8F85
P 7925 4400
F 0 "R16" V 7975 4200 50  0000 C CNN
F 1 "610" V 7925 4400 50  0000 C CNN
F 2 "Resistors_SMD:R_0603_HandSoldering" V 7855 4400 50  0001 C CNN
F 3 "" H 7925 4400 50  0001 C CNN
	1    7925 4400
	1    0    0    -1  
$EndComp
Wire Wire Line
	7925 4200 7925 4250
Wire Wire Line
	7925 4550 7925 4675
$Comp
L Device:LED_Small D1
U 1 1 5B6D8F8D
P 7800 4100
F 0 "D1" H 7850 4050 50  0000 L CNN
F 1 "LED" H 7625 4050 50  0000 L CNN
F 2 "LEDs:LED_0603_HandSoldering" V 7800 4100 50  0001 C CNN
F 3 "" V 7800 4100 50  0001 C CNN
	1    7800 4100
	0    -1   -1   0   
$EndComp
$Comp
L Device:R R15
U 1 1 5B6D8F93
P 7800 4400
F 0 "R15" V 7850 4200 50  0000 C CNN
F 1 "610" V 7800 4400 50  0000 C CNN
F 2 "Resistors_SMD:R_0603_HandSoldering" V 7730 4400 50  0001 C CNN
F 3 "" H 7800 4400 50  0001 C CNN
	1    7800 4400
	1    0    0    -1  
$EndComp
Wire Wire Line
	7800 4200 7800 4250
Wire Wire Line
	7800 4550 7800 4675
Wire Wire Line
	7800 4675 7925 4675
Connection ~ 7925 4675
Connection ~ 8050 4675
Connection ~ 8175 4675
Connection ~ 8300 4675
Connection ~ 8425 4675
$Comp
L power:GND #PWR022
U 1 1 5B6D9630
P 8425 4750
F 0 "#PWR022" H 8425 4500 50  0001 C CNN
F 1 "GND" H 8425 4600 50  0000 C CNN
F 2 "" H 8425 4750 50  0001 C CNN
F 3 "" H 8425 4750 50  0001 C CNN
	1    8425 4750
	1    0    0    -1  
$EndComp
Wire Wire Line
	7800 4000 7800 3150
Connection ~ 7800 3150
Wire Wire Line
	7925 4000 7925 3250
Connection ~ 7925 3250
Wire Wire Line
	8050 4000 8050 3350
Connection ~ 8050 3350
Wire Wire Line
	8175 4000 8175 3450
Connection ~ 8175 3450
Wire Wire Line
	8300 4000 8300 3550
Connection ~ 8300 3550
Wire Wire Line
	8425 4000 8425 3650
Connection ~ 8425 3650
Wire Wire Line
	9725 3050 9725 2775
Wire Wire Line
	9725 2775 9225 2775
Connection ~ 9225 2775
$Comp
L Device:R R25
U 1 1 5B6DA07D
P 10075 4225
F 0 "R25" V 10125 4025 50  0000 C CNN
F 1 "10K" V 10075 4225 50  0000 C CNN
F 2 "Resistors_SMD:R_0603_HandSoldering" V 10005 4225 50  0001 C CNN
F 3 "" H 10075 4225 50  0001 C CNN
	1    10075 4225
	1    0    0    -1  
$EndComp
Wire Wire Line
	10075 3950 10075 4075
Wire Wire Line
	10075 4375 10075 4500
$Comp
L Device:R R24
U 1 1 5B6DA085
P 9950 4225
F 0 "R24" V 10000 4025 50  0000 C CNN
F 1 "10K" V 9950 4225 50  0000 C CNN
F 2 "Resistors_SMD:R_0603_HandSoldering" V 9880 4225 50  0001 C CNN
F 3 "" H 9950 4225 50  0001 C CNN
	1    9950 4225
	1    0    0    -1  
$EndComp
Wire Wire Line
	9950 3850 9950 4075
Wire Wire Line
	9950 4500 9950 4375
$Comp
L Device:R R23
U 1 1 5B6DA08D
P 9825 4225
F 0 "R23" V 9875 4025 50  0000 C CNN
F 1 "10K" V 9825 4225 50  0000 C CNN
F 2 "Resistors_SMD:R_0603_HandSoldering" V 9755 4225 50  0001 C CNN
F 3 "" H 9825 4225 50  0001 C CNN
	1    9825 4225
	1    0    0    -1  
$EndComp
Wire Wire Line
	9825 3750 9825 4075
Wire Wire Line
	9825 4500 9825 4375
Wire Wire Line
	9825 4500 9950 4500
Connection ~ 9950 4500
$Comp
L power:GND #PWR023
U 1 1 5B6DA098
P 10075 4600
F 0 "#PWR023" H 10075 4350 50  0001 C CNN
F 1 "GND" H 10075 4450 50  0000 C CNN
F 2 "" H 10075 4600 50  0001 C CNN
F 3 "" H 10075 4600 50  0001 C CNN
	1    10075 4600
	1    0    0    -1  
$EndComp
Connection ~ 10075 4500
$Comp
L Device:Jumper_NC_Small JP1
U 1 1 5B6DA3D4
P 10375 3750
F 0 "JP1" H 10225 3800 50  0000 C CNN
F 1 "A0" H 10500 3800 50  0000 C CNN
F 2 "Pin_Headers:Pin_Header_Straight_1x02_Pitch2.54mm" H 10375 3750 50  0001 C CNN
F 3 "" H 10375 3750 50  0001 C CNN
	1    10375 3750
	1    0    0    -1  
$EndComp
$Comp
L Device:Jumper_NC_Small JP2
U 1 1 5B6DA6DA
P 10375 3850
F 0 "JP2" H 10225 3900 50  0000 C CNN
F 1 "A1" H 10500 3900 50  0000 C CNN
F 2 "Pin_Headers:Pin_Header_Straight_1x02_Pitch2.54mm" H 10375 3850 50  0001 C CNN
F 3 "" H 10375 3850 50  0001 C CNN
	1    10375 3850
	1    0    0    -1  
$EndComp
$Comp
L Device:Jumper_NC_Small JP3
U 1 1 5B6DA78E
P 10375 3950
F 0 "JP3" H 10225 4000 50  0000 C CNN
F 1 "A2" H 10500 4000 50  0000 C CNN
F 2 "Pin_Headers:Pin_Header_Straight_1x02_Pitch2.54mm" H 10375 3950 50  0001 C CNN
F 3 "" H 10375 3950 50  0001 C CNN
	1    10375 3950
	1    0    0    -1  
$EndComp
Wire Wire Line
	9725 3750 9825 3750
Wire Wire Line
	9725 3850 9950 3850
Wire Wire Line
	10275 3950 10075 3950
Connection ~ 9825 3750
Connection ~ 9950 3850
Connection ~ 10075 3950
Wire Wire Line
	10475 3750 10650 3750
Wire Wire Line
	10650 3675 10650 3750
Wire Wire Line
	10650 3850 10475 3850
Connection ~ 10650 3750
Wire Wire Line
	10650 3950 10475 3950
Connection ~ 10650 3850
$Comp
L power:+5V #PWR024
U 1 1 5B6E2D22
P 975 1025
F 0 "#PWR024" H 975 875 50  0001 C CNN
F 1 "+5V" H 975 1165 50  0000 C CNN
F 2 "" H 975 1025 50  0001 C CNN
F 3 "" H 975 1025 50  0001 C CNN
	1    975  1025
	1    0    0    -1  
$EndComp
$Comp
L power:+5V #PWR025
U 1 1 5B6E59EF
P 9225 2750
F 0 "#PWR025" H 9225 2600 50  0001 C CNN
F 1 "+5V" H 9225 2890 50  0000 C CNN
F 2 "" H 9225 2750 50  0001 C CNN
F 3 "" H 9225 2750 50  0001 C CNN
	1    9225 2750
	1    0    0    -1  
$EndComp
$Comp
L power:+5V #PWR026
U 1 1 5B6E5AD8
P 10650 3675
F 0 "#PWR026" H 10650 3525 50  0001 C CNN
F 1 "+5V" H 10650 3815 50  0000 C CNN
F 2 "" H 10650 3675 50  0001 C CNN
F 3 "" H 10650 3675 50  0001 C CNN
	1    10650 3675
	1    0    0    -1  
$EndComp
Text Label 9425 2775 0    40   ~ 0
VL
Wire Wire Line
	4325 5250 4325 5425
Wire Wire Line
	4775 5250 4925 5250
Wire Wire Line
	6050 5250 6050 5825
Wire Wire Line
	6050 4675 6150 4675
Wire Wire Line
	5425 5250 5600 5250
Wire Wire Line
	5425 5825 5450 5825
Wire Wire Line
	3400 4575 3450 4575
Wire Wire Line
	3400 4575 3400 4975
Wire Wire Line
	4700 2975 4750 2975
Wire Wire Line
	4700 2775 4750 2775
Wire Wire Line
	3400 2875 3400 2775
Wire Wire Line
	5400 3300 5550 3300
Wire Wire Line
	6050 3300 6225 3300
Wire Wire Line
	6050 3825 6075 3825
Wire Wire Line
	5300 1800 5450 1800
Wire Wire Line
	5950 1800 6125 1800
Wire Wire Line
	5950 2300 5975 2300
Wire Wire Line
	6575 2300 6575 2550
Wire Wire Line
	6675 3300 6675 3825
Wire Wire Line
	6675 3300 6875 3300
Wire Wire Line
	7925 4675 8050 4675
Wire Wire Line
	8050 4675 8175 4675
Wire Wire Line
	8175 4675 8300 4675
Wire Wire Line
	8300 4675 8425 4675
Wire Wire Line
	7800 3150 8725 3150
Wire Wire Line
	7925 3250 8725 3250
Wire Wire Line
	8050 3350 8725 3350
Wire Wire Line
	8175 3450 8725 3450
Wire Wire Line
	8300 3550 8725 3550
Wire Wire Line
	8425 3650 8725 3650
Wire Wire Line
	9225 2775 9225 2850
Wire Wire Line
	9950 4500 10075 4500
Wire Wire Line
	10075 4500 10075 4600
Wire Wire Line
	9825 3750 10275 3750
Wire Wire Line
	9950 3850 10275 3850
Wire Wire Line
	10075 3950 9725 3950
Wire Wire Line
	10650 3750 10650 3850
Wire Wire Line
	10650 3850 10650 3950
$Comp
L power:GND #PWR028
U 1 1 5B73A698
P 1025 1550
F 0 "#PWR028" H 1025 1300 50  0001 C CNN
F 1 "GND" H 1025 1400 50  0000 C CNN
F 2 "" H 1025 1550 50  0001 C CNN
F 3 "" H 1025 1550 50  0001 C CNN
	1    1025 1550
	1    0    0    -1  
$EndComp
$Comp
L power:GND #PWR030
U 1 1 5B74F292
P 2750 1450
F 0 "#PWR030" H 2750 1200 50  0001 C CNN
F 1 "GND" H 2750 1300 50  0000 C CNN
F 2 "" H 2750 1450 50  0001 C CNN
F 3 "" H 2750 1450 50  0001 C CNN
	1    2750 1450
	1    0    0    -1  
$EndComp
Connection ~ 3775 4575
Wire Wire Line
	3775 4575 4750 4575
$Comp
L power:-15V #PWR034
U 1 1 5B7795E4
P 4025 6225
F 0 "#PWR034" H 4025 6325 50  0001 C CNN
F 1 "-15V" H 4025 6375 50  0000 C CNN
F 2 "" H 4025 6225 50  0001 C CNN
F 3 "" H 4025 6225 50  0001 C CNN
	1    4025 6225
	-1   0    0    1   
$EndComp
Wire Wire Line
	3925 6125 4025 6125
Wire Wire Line
	4025 6125 4025 6225
Wire Wire Line
	4475 6125 4600 6125
Wire Wire Line
	4600 6125 4600 6225
$Comp
L power:-15V #PWR035
U 1 1 5B79C600
P 1225 1550
F 0 "#PWR035" H 1225 1650 50  0001 C CNN
F 1 "-15V" H 1225 1700 50  0000 C CNN
F 2 "" H 1225 1550 50  0001 C CNN
F 3 "" H 1225 1550 50  0001 C CNN
	1    1225 1550
	-1   0    0    1   
$EndComp
$Comp
L power:-15V #PWR036
U 1 1 5B79C6AA
P 5600 2525
F 0 "#PWR036" H 5600 2625 50  0001 C CNN
F 1 "-15V" H 5600 2675 50  0000 C CNN
F 2 "" H 5600 2525 50  0001 C CNN
F 3 "" H 5600 2525 50  0001 C CNN
	1    5600 2525
	-1   0    0    1   
$EndComp
$Comp
L power:+15V #PWR039
U 1 1 5B7A9301
P 5700 3600
F 0 "#PWR039" H 5700 3450 50  0001 C CNN
F 1 "+15V" H 5700 3740 50  0000 C CNN
F 2 "" H 5700 3600 50  0001 C CNN
F 3 "" H 5700 3600 50  0001 C CNN
	1    5700 3600
	1    0    0    -1  
$EndComp
$Comp
L power:-15V #PWR038
U 1 1 5B7C050D
P 5075 6050
F 0 "#PWR038" H 5075 6150 50  0001 C CNN
F 1 "-15V" H 5075 6200 50  0000 C CNN
F 2 "" H 5075 6050 50  0001 C CNN
F 3 "" H 5075 6050 50  0001 C CNN
	1    5075 6050
	-1   0    0    1   
$EndComp
$Comp
L Amplifier_Operational:LM324 U2
U 5 1 5B75B1EE
P 1250 2750
F 0 "U2" H 1208 2796 50  0000 L CNN
F 1 "OPA4192 (OPA4197)" H 1208 2705 50  0000 L CNN
F 2 "Housings_SOIC:SOIC-14_3.9x8.7mm_Pitch1.27mm" H 1200 2850 50  0001 C CNN
F 3 "http://www.ti.com/lit/ds/symlink/lm2902-n.pdf" H 1300 2950 50  0001 C CNN
	5    1250 2750
	1    0    0    -1  
$EndComp
$Comp
L Device:C C1
U 1 1 5B7B29BA
P 7150 1200
F 0 "C1" H 7265 1246 50  0000 L CNN
F 1 "100nF" H 7265 1155 50  0000 L CNN
F 2 "Capacitors_SMD:C_0603_HandSoldering" H 7188 1050 50  0001 C CNN
F 3 "~" H 7150 1200 50  0001 C CNN
	1    7150 1200
	1    0    0    -1  
$EndComp
$Comp
L Device:C C2
U 1 1 5B7B2CB1
P 7150 1650
F 0 "C2" H 7265 1696 50  0000 L CNN
F 1 "100nF" H 7265 1605 50  0000 L CNN
F 2 "Capacitors_SMD:C_0603_HandSoldering" H 7188 1500 50  0001 C CNN
F 3 "~" H 7150 1650 50  0001 C CNN
	1    7150 1650
	1    0    0    -1  
$EndComp
$Comp
L Device:C C3
U 1 1 5B7B2E5F
P 7650 1200
F 0 "C3" H 7765 1246 50  0000 L CNN
F 1 "100nF" H 7765 1155 50  0000 L CNN
F 2 "Capacitors_SMD:C_0603_HandSoldering" H 7688 1050 50  0001 C CNN
F 3 "~" H 7650 1200 50  0001 C CNN
	1    7650 1200
	1    0    0    -1  
$EndComp
$Comp
L power:+15V #PWR010
U 1 1 5B7B4D4A
P 7150 950
F 0 "#PWR010" H 7150 800 50  0001 C CNN
F 1 "+15V" H 7150 1090 50  0000 C CNN
F 2 "" H 7150 950 50  0001 C CNN
F 3 "" H 7150 950 50  0001 C CNN
	1    7150 950 
	1    0    0    -1  
$EndComp
$Comp
L power:+5V #PWR019
U 1 1 5B7B4F8F
P 7650 950
F 0 "#PWR019" H 7650 800 50  0001 C CNN
F 1 "+5V" H 7650 1090 50  0000 C CNN
F 2 "" H 7650 950 50  0001 C CNN
F 3 "" H 7650 950 50  0001 C CNN
	1    7650 950 
	1    0    0    -1  
$EndComp
$Comp
L power:GND #PWR05
U 1 1 5B7B5E4C
P 6975 1475
F 0 "#PWR05" H 6975 1225 50  0001 C CNN
F 1 "GND" H 6975 1325 50  0000 C CNN
F 2 "" H 6975 1475 50  0001 C CNN
F 3 "" H 6975 1475 50  0001 C CNN
	1    6975 1475
	1    0    0    -1  
$EndComp
$Comp
L power:-15V #PWR011
U 1 1 5B7B6091
P 7150 1875
F 0 "#PWR011" H 7150 1975 50  0001 C CNN
F 1 "-15V" H 7150 2025 50  0000 C CNN
F 2 "" H 7150 1875 50  0001 C CNN
F 3 "" H 7150 1875 50  0001 C CNN
	1    7150 1875
	-1   0    0    1   
$EndComp
Wire Wire Line
	7150 950  7150 1050
Wire Wire Line
	7150 1350 7150 1400
Wire Wire Line
	7150 1800 7150 1875
Wire Wire Line
	6975 1400 7150 1400
Connection ~ 7150 1400
Wire Wire Line
	7150 1400 7150 1500
Wire Wire Line
	6975 1400 6975 1475
$Comp
L power:GND #PWR032
U 1 1 5B7EC084
P 7650 1425
F 0 "#PWR032" H 7650 1175 50  0001 C CNN
F 1 "GND" H 7650 1275 50  0000 C CNN
F 2 "" H 7650 1425 50  0001 C CNN
F 3 "" H 7650 1425 50  0001 C CNN
	1    7650 1425
	1    0    0    -1  
$EndComp
Wire Wire Line
	7650 950  7650 1050
Wire Wire Line
	7650 1350 7650 1425
$Comp
L Device:C C4
U 1 1 5B80F517
P 8175 1200
F 0 "C4" H 8290 1246 50  0000 L CNN
F 1 "100nF" H 8290 1155 50  0000 L CNN
F 2 "Capacitors_SMD:C_0603_HandSoldering" H 8213 1050 50  0001 C CNN
F 3 "~" H 8175 1200 50  0001 C CNN
	1    8175 1200
	1    0    0    -1  
$EndComp
$Comp
L Device:C C5
U 1 1 5B80F51D
P 8175 1650
F 0 "C5" H 8290 1696 50  0000 L CNN
F 1 "100nF" H 8290 1605 50  0000 L CNN
F 2 "Capacitors_SMD:C_0603_HandSoldering" H 8213 1500 50  0001 C CNN
F 3 "~" H 8175 1650 50  0001 C CNN
	1    8175 1650
	1    0    0    -1  
$EndComp
$Comp
L Device:C C6
U 1 1 5B80F523
P 8675 1200
F 0 "C6" H 8790 1246 50  0000 L CNN
F 1 "100nF" H 8790 1155 50  0000 L CNN
F 2 "Capacitors_SMD:C_0603_HandSoldering" H 8713 1050 50  0001 C CNN
F 3 "~" H 8675 1200 50  0001 C CNN
	1    8675 1200
	1    0    0    -1  
$EndComp
$Comp
L power:+15V #PWR040
U 1 1 5B80F529
P 8175 950
F 0 "#PWR040" H 8175 800 50  0001 C CNN
F 1 "+15V" H 8175 1090 50  0000 C CNN
F 2 "" H 8175 950 50  0001 C CNN
F 3 "" H 8175 950 50  0001 C CNN
	1    8175 950 
	1    0    0    -1  
$EndComp
$Comp
L power:+5V #PWR042
U 1 1 5B80F52F
P 8675 950
F 0 "#PWR042" H 8675 800 50  0001 C CNN
F 1 "+5V" H 8675 1090 50  0000 C CNN
F 2 "" H 8675 950 50  0001 C CNN
F 3 "" H 8675 950 50  0001 C CNN
	1    8675 950 
	1    0    0    -1  
$EndComp
$Comp
L power:GND #PWR037
U 1 1 5B80F535
P 8000 1475
F 0 "#PWR037" H 8000 1225 50  0001 C CNN
F 1 "GND" H 8000 1325 50  0000 C CNN
F 2 "" H 8000 1475 50  0001 C CNN
F 3 "" H 8000 1475 50  0001 C CNN
	1    8000 1475
	1    0    0    -1  
$EndComp
$Comp
L power:-15V #PWR041
U 1 1 5B80F53B
P 8175 1875
F 0 "#PWR041" H 8175 1975 50  0001 C CNN
F 1 "-15V" H 8175 2025 50  0000 C CNN
F 2 "" H 8175 1875 50  0001 C CNN
F 3 "" H 8175 1875 50  0001 C CNN
	1    8175 1875
	-1   0    0    1   
$EndComp
Wire Wire Line
	8175 950  8175 1050
Wire Wire Line
	8175 1350 8175 1400
Wire Wire Line
	8175 1800 8175 1875
Wire Wire Line
	8000 1400 8175 1400
Connection ~ 8175 1400
Wire Wire Line
	8175 1400 8175 1500
Wire Wire Line
	8000 1400 8000 1475
$Comp
L power:GND #PWR043
U 1 1 5B80F548
P 8675 1425
F 0 "#PWR043" H 8675 1175 50  0001 C CNN
F 1 "GND" H 8675 1275 50  0000 C CNN
F 2 "" H 8675 1425 50  0001 C CNN
F 3 "" H 8675 1425 50  0001 C CNN
	1    8675 1425
	1    0    0    -1  
$EndComp
Wire Wire Line
	8675 950  8675 1050
Wire Wire Line
	8675 1350 8675 1425
$Comp
L Device:C C7
U 1 1 5B81B2C0
P 9250 1200
F 0 "C7" H 9365 1246 50  0000 L CNN
F 1 "100nF" H 9365 1155 50  0000 L CNN
F 2 "Capacitors_SMD:C_0603_HandSoldering" H 9288 1050 50  0001 C CNN
F 3 "~" H 9250 1200 50  0001 C CNN
	1    9250 1200
	1    0    0    -1  
$EndComp
$Comp
L Device:C C8
U 1 1 5B81B2C6
P 9250 1650
F 0 "C8" H 9365 1696 50  0000 L CNN
F 1 "100nF" H 9365 1605 50  0000 L CNN
F 2 "Capacitors_SMD:C_0603_HandSoldering" H 9288 1500 50  0001 C CNN
F 3 "~" H 9250 1650 50  0001 C CNN
	1    9250 1650
	1    0    0    -1  
$EndComp
$Comp
L Device:C C9
U 1 1 5B81B2CC
P 9750 1200
F 0 "C9" H 9865 1246 50  0000 L CNN
F 1 "100nF" H 9865 1155 50  0000 L CNN
F 2 "Capacitors_SMD:C_0603_HandSoldering" H 9788 1050 50  0001 C CNN
F 3 "~" H 9750 1200 50  0001 C CNN
	1    9750 1200
	1    0    0    -1  
$EndComp
$Comp
L power:+15V #PWR045
U 1 1 5B81B2D2
P 9250 950
F 0 "#PWR045" H 9250 800 50  0001 C CNN
F 1 "+15V" H 9250 1090 50  0000 C CNN
F 2 "" H 9250 950 50  0001 C CNN
F 3 "" H 9250 950 50  0001 C CNN
	1    9250 950 
	1    0    0    -1  
$EndComp
$Comp
L power:+5V #PWR047
U 1 1 5B81B2D8
P 9750 950
F 0 "#PWR047" H 9750 800 50  0001 C CNN
F 1 "+5V" H 9750 1090 50  0000 C CNN
F 2 "" H 9750 950 50  0001 C CNN
F 3 "" H 9750 950 50  0001 C CNN
	1    9750 950 
	1    0    0    -1  
$EndComp
$Comp
L power:GND #PWR044
U 1 1 5B81B2DE
P 9075 1475
F 0 "#PWR044" H 9075 1225 50  0001 C CNN
F 1 "GND" H 9075 1325 50  0000 C CNN
F 2 "" H 9075 1475 50  0001 C CNN
F 3 "" H 9075 1475 50  0001 C CNN
	1    9075 1475
	1    0    0    -1  
$EndComp
$Comp
L power:-15V #PWR046
U 1 1 5B81B2E4
P 9250 1875
F 0 "#PWR046" H 9250 1975 50  0001 C CNN
F 1 "-15V" H 9250 2025 50  0000 C CNN
F 2 "" H 9250 1875 50  0001 C CNN
F 3 "" H 9250 1875 50  0001 C CNN
	1    9250 1875
	-1   0    0    1   
$EndComp
Wire Wire Line
	9250 950  9250 1050
Wire Wire Line
	9250 1350 9250 1400
Wire Wire Line
	9250 1800 9250 1875
Wire Wire Line
	9075 1400 9250 1400
Connection ~ 9250 1400
Wire Wire Line
	9250 1400 9250 1500
Wire Wire Line
	9075 1400 9075 1475
$Comp
L power:GND #PWR048
U 1 1 5B81B2F1
P 9750 1425
F 0 "#PWR048" H 9750 1175 50  0001 C CNN
F 1 "GND" H 9750 1275 50  0000 C CNN
F 2 "" H 9750 1425 50  0001 C CNN
F 3 "" H 9750 1425 50  0001 C CNN
	1    9750 1425
	1    0    0    -1  
$EndComp
Wire Wire Line
	9750 950  9750 1050
Wire Wire Line
	9750 1350 9750 1425
Wire Wire Line
	3925 5725 3925 5825
Wire Wire Line
	4475 5725 4475 5825
Wire Wire Line
	8425 4675 8425 4750
Wire Wire Line
	8425 4550 8425 4675
$Comp
L Device:C C11
U 1 1 5BB44888
P 5725 4375
F 0 "C11" V 5775 4450 50  0000 L CNN
F 1 "4,7pF" V 5775 4075 50  0000 L CNN
F 2 "Capacitors_SMD:C_0603_HandSoldering" H 5763 4225 50  0001 C CNN
F 3 "~" H 5725 4375 50  0001 C CNN
	1    5725 4375
	0    1    1    0   
$EndComp
Wire Wire Line
	6675 3825 6675 4375
Wire Wire Line
	6675 4375 5875 4375
Connection ~ 6675 3825
Wire Wire Line
	5575 4375 4700 4375
Wire Wire Line
	4700 4375 4700 3300
Connection ~ 4700 3300
$Comp
L Device:C C10
U 1 1 5BB5DEA7
P 5200 5025
F 0 "C10" V 5250 5100 50  0000 L CNN
F 1 "4,7pF" V 5250 4725 50  0000 L CNN
F 2 "Capacitors_SMD:C_0603_HandSoldering" H 5238 4875 50  0001 C CNN
F 3 "~" H 5200 5025 50  0001 C CNN
	1    5200 5025
	0    1    1    0   
$EndComp
Wire Wire Line
	5350 5025 6050 5025
Connection ~ 6050 5025
Wire Wire Line
	6050 5025 6050 5250
Wire Wire Line
	5050 5025 4325 5025
Connection ~ 4325 5025
Wire Wire Line
	4325 5025 4325 5250
$EndSCHEMATC
