EESchema Schematic File Version 4
LIBS:power
LIBS:device
LIBS:transistors
LIBS:conn
LIBS:linear
LIBS:regul
LIBS:74xx
LIBS:cmos4000
LIBS:adc-dac
LIBS:memory
LIBS:xilinx
LIBS:microcontrollers
LIBS:dsp
LIBS:microchip
LIBS:analog_switches
LIBS:motorola
LIBS:texas
LIBS:intel
LIBS:audio
LIBS:interface
LIBS:digital-audio
LIBS:philips
LIBS:display
LIBS:cypress
LIBS:siliconi
LIBS:opto
LIBS:atmel
LIBS:contrib
LIBS:valves
LIBS:stm32
LIBS:AFE-cache
EELAYER 26 0
EELAYER END
$Descr A4 11693 8268
encoding utf-8
Sheet 1 1
Title "Curve Tracer / Processor Board"
Date ""
Rev "0001"
Comp ""
Comment1 ""
Comment2 ""
Comment3 ""
Comment4 ""
$EndDescr
$Comp
L linear:TL072 U3
U 1 1 5BDA5667
P 5400 1650
F 0 "U3" H 5375 1825 50  0000 L CNN
F 1 "OPA2197" H 5400 1500 50  0000 L CNN
F 2 "Housings_SOIC:SOIC-8_3.9x4.9mm_Pitch1.27mm" H 5400 1650 50  0001 C CNN
F 3 "http://www.ti.com/lit/ds/symlink/tl071.pdf" H 5400 1650 50  0001 C CNN
	1    5400 1650
	1    0    0    -1  
$EndComp
$Comp
L power:+15V #PWR0122
U 1 1 5BDA566D
P 5300 1275
F 0 "#PWR0122" H 5300 1125 50  0001 C CNN
F 1 "+15V" H 5315 1448 50  0000 C CNN
F 2 "" H 5300 1275 50  0001 C CNN
F 3 "" H 5300 1275 50  0001 C CNN
	1    5300 1275
	1    0    0    -1  
$EndComp
$Comp
L power:-15V #PWR0123
U 1 1 5BDA5673
P 5300 2025
F 0 "#PWR0123" H 5300 2125 50  0001 C CNN
F 1 "-15V" H 5315 2198 50  0000 C CNN
F 2 "" H 5300 2025 50  0001 C CNN
F 3 "" H 5300 2025 50  0001 C CNN
	1    5300 2025
	-1   0    0    1   
$EndComp
$Comp
L power:GNDREF #PWR0124
U 1 1 5BDA5679
P 3800 1925
F 0 "#PWR0124" H 3800 1675 50  0001 C CNN
F 1 "GNDREF" H 3805 1752 50  0000 C CNN
F 2 "1,65V" H 3925 1950 50  0000 C CNN
F 3 "" H 3800 1925 50  0001 C CNN
	1    3800 1925
	1    0    0    -1  
$EndComp
Wire Wire Line
	5300 1950 5300 2025
Wire Wire Line
	5300 1275 5300 1350
$Comp
L Device:R R4
U 1 1 5BDA5683
P 4475 1750
F 0 "R4" V 4575 1750 50  0000 C CNN
F 1 "10K" V 4359 1750 50  0000 C CNN
F 2 "Resistors_SMD:R_0603_HandSoldering" V 4405 1750 50  0001 C CNN
F 3 "~" H 4475 1750 50  0001 C CNN
	1    4475 1750
	0    1    1    0   
$EndComp
$Comp
L Device:R R6
U 1 1 5BDA5695
P 4925 1325
F 0 "R6" V 4718 1325 50  0000 C CNN
F 1 "10K" V 4809 1325 50  0000 C CNN
F 2 "Resistors_SMD:R_0603_HandSoldering" V 4855 1325 50  0001 C CNN
F 3 "~" H 4925 1325 50  0001 C CNN
	1    4925 1325
	0    1    1    0   
$EndComp
Wire Wire Line
	5100 1750 4700 1750
Connection ~ 4700 1750
Wire Wire Line
	4700 1750 4625 1750
Wire Wire Line
	4700 1750 4700 1325
Wire Wire Line
	4700 1325 4775 1325
Wire Wire Line
	5075 1325 5700 1325
Wire Wire Line
	5700 1325 5700 1650
Text GLabel 7325 1750 2    50   Input ~ 0
ADC1
Text GLabel 4225 1750 0    50   Input ~ 0
IN_ADC1
Wire Wire Line
	4225 1750 4325 1750
Wire Wire Line
	5700 1650 5800 1650
Connection ~ 5700 1650
$Comp
L linear:TL072 U4
U 1 1 5BDB0859
P 6825 1750
F 0 "U4" H 6800 1925 50  0000 L CNN
F 1 "TLV2333/OPA2333" H 6825 1600 50  0000 L CNN
F 2 "Housings_SOIC:SOIC-8_3.9x4.9mm_Pitch1.27mm" H 6825 1750 50  0001 C CNN
F 3 "http://www.ti.com/lit/ds/symlink/tl071.pdf" H 6825 1750 50  0001 C CNN
	1    6825 1750
	1    0    0    -1  
$EndComp
$Comp
L Device:R R8
U 1 1 5BDB090B
P 5950 1650
F 0 "R8" V 5743 1650 50  0000 C CNN
F 1 "10K" V 5834 1650 50  0000 C CNN
F 2 "Resistors_SMD:R_0603_HandSoldering" V 5880 1650 50  0001 C CNN
F 3 "~" H 5950 1650 50  0001 C CNN
	1    5950 1650
	0    1    1    0   
$EndComp
Wire Wire Line
	6525 1850 6525 2150
Wire Wire Line
	6525 2150 7175 2150
Wire Wire Line
	7175 2150 7175 1750
Wire Wire Line
	7175 1750 7125 1750
Wire Wire Line
	7175 1750 7325 1750
Connection ~ 7175 1750
$Comp
L power:GNDA #PWR0125
U 1 1 5BDE8E2B
P 6250 2175
F 0 "#PWR0125" H 6250 1925 50  0001 C CNN
F 1 "GNDA" H 6255 2002 50  0000 C CNN
F 2 "" H 6250 2175 50  0001 C CNN
F 3 "" H 6250 2175 50  0001 C CNN
	1    6250 2175
	1    0    0    -1  
$EndComp
$Comp
L power:+3.3VA #PWR0126
U 1 1 5BDF463D
P 6250 1150
F 0 "#PWR0126" H 6250 1000 50  0001 C CNN
F 1 "+3.3VA" H 6265 1323 50  0000 C CNN
F 2 "" H 6250 1150 50  0001 C CNN
F 3 "" H 6250 1150 50  0001 C CNN
	1    6250 1150
	1    0    0    -1  
$EndComp
Wire Wire Line
	6250 1150 6250 1225
$Comp
L power:GNDA #PWR0127
U 1 1 5BE00199
P 6725 2250
F 0 "#PWR0127" H 6725 2000 50  0001 C CNN
F 1 "GNDA" H 6730 2077 50  0000 C CNN
F 2 "" H 6725 2250 50  0001 C CNN
F 3 "" H 6725 2250 50  0001 C CNN
	1    6725 2250
	1    0    0    -1  
$EndComp
$Comp
L power:+3.3VA #PWR0128
U 1 1 5BE001FB
P 6725 1325
F 0 "#PWR0128" H 6725 1175 50  0001 C CNN
F 1 "+3.3VA" H 6740 1498 50  0000 C CNN
F 2 "" H 6725 1325 50  0001 C CNN
F 3 "" H 6725 1325 50  0001 C CNN
	1    6725 1325
	1    0    0    -1  
$EndComp
Wire Wire Line
	6725 1325 6725 1450
Wire Wire Line
	6725 2050 6725 2250
$Comp
L Device:C C3
U 1 1 5BE39836
P 4925 950
F 0 "C3" V 4673 950 50  0000 C CNN
F 1 "10pF" V 4764 950 50  0000 C CNN
F 2 "Capacitors_SMD:C_0603_HandSoldering" H 4963 800 50  0001 C CNN
F 3 "~" H 4925 950 50  0001 C CNN
	1    4925 950 
	0    1    1    0   
$EndComp
Wire Wire Line
	4700 1325 4700 950 
Wire Wire Line
	4700 950  4775 950 
Connection ~ 4700 1325
Wire Wire Line
	5075 950  5700 950 
Wire Wire Line
	5700 950  5700 1325
Connection ~ 5700 1325
$Comp
L Device:D_Schottky_x2_Serial_AKC D1
U 1 1 5BE50EE2
P 6250 1525
F 0 "D1" V 6296 1604 50  0000 L CNN
F 1 "BAR43SFILM" V 6550 1550 50  0000 L CNN
F 2 "TO_SOT_Packages_SMD:SOT-23_Handsoldering" H 6250 1525 50  0001 C CNN
F 3 "~" H 6250 1525 50  0001 C CNN
	1    6250 1525
	0    -1   -1   0   
$EndComp
Wire Wire Line
	6250 1825 6250 2175
Wire Wire Line
	6100 1650 6100 1875
Wire Wire Line
	6100 1875 6400 1875
Wire Wire Line
	6400 1875 6400 1650
Wire Wire Line
	6400 1650 6450 1650
Wire Wire Line
	6450 1525 6450 1650
Connection ~ 6450 1650
Wire Wire Line
	6450 1650 6525 1650
$Comp
L linear:TL072 U3
U 2 1 5BF1B0D7
P 5400 3400
F 0 "U3" H 5375 3575 50  0000 L CNN
F 1 "OPA2197" H 5400 3250 50  0000 L CNN
F 2 "Housings_SOIC:SOIC-8_3.9x4.9mm_Pitch1.27mm" H 5400 3400 50  0001 C CNN
F 3 "http://www.ti.com/lit/ds/symlink/tl071.pdf" H 5400 3400 50  0001 C CNN
	2    5400 3400
	1    0    0    -1  
$EndComp
$Comp
L power:+15V #PWR0129
U 1 1 5BF1B0DD
P 5300 3025
F 0 "#PWR0129" H 5300 2875 50  0001 C CNN
F 1 "+15V" H 5315 3198 50  0000 C CNN
F 2 "" H 5300 3025 50  0001 C CNN
F 3 "" H 5300 3025 50  0001 C CNN
	1    5300 3025
	1    0    0    -1  
$EndComp
$Comp
L power:-15V #PWR0130
U 1 1 5BF1B0E3
P 5300 3775
F 0 "#PWR0130" H 5300 3875 50  0001 C CNN
F 1 "-15V" H 5315 3948 50  0000 C CNN
F 2 "" H 5300 3775 50  0001 C CNN
F 3 "" H 5300 3775 50  0001 C CNN
	1    5300 3775
	-1   0    0    1   
$EndComp
$Comp
L power:GNDREF #PWR0131
U 1 1 5BF1B0E9
P 3750 3625
F 0 "#PWR0131" H 3750 3375 50  0001 C CNN
F 1 "GNDREF" H 3755 3452 50  0000 C CNN
F 2 "1,65V" H 3875 3650 50  0000 C CNN
F 3 "" H 3750 3625 50  0001 C CNN
	1    3750 3625
	1    0    0    -1  
$EndComp
Wire Wire Line
	5300 3700 5300 3775
Wire Wire Line
	5300 3025 5300 3100
$Comp
L Device:R R5
U 1 1 5BF1B0F3
P 4475 3500
F 0 "R5" V 4575 3500 50  0000 C CNN
F 1 "10K" V 4375 3500 50  0000 C CNN
F 2 "Resistors_SMD:R_0603_HandSoldering" V 4405 3500 50  0001 C CNN
F 3 "~" H 4475 3500 50  0001 C CNN
	1    4475 3500
	0    1    1    0   
$EndComp
$Comp
L Device:R R7
U 1 1 5BF1B0F9
P 4925 3075
F 0 "R7" V 4718 3075 50  0000 C CNN
F 1 "10K" V 4809 3075 50  0000 C CNN
F 2 "Resistors_SMD:R_0603_HandSoldering" V 4855 3075 50  0001 C CNN
F 3 "~" H 4925 3075 50  0001 C CNN
	1    4925 3075
	0    1    1    0   
$EndComp
Wire Wire Line
	5100 3500 4700 3500
Connection ~ 4700 3500
Wire Wire Line
	4700 3500 4625 3500
Wire Wire Line
	4700 3500 4700 3075
Wire Wire Line
	4700 3075 4775 3075
Wire Wire Line
	5075 3075 5700 3075
Wire Wire Line
	5700 3075 5700 3400
Text GLabel 7325 3500 2    50   Input ~ 0
ADC2
Text GLabel 4225 3500 0    50   Input ~ 0
IN_ADC2
Wire Wire Line
	4225 3500 4325 3500
Wire Wire Line
	5700 3400 5800 3400
Connection ~ 5700 3400
$Comp
L linear:TL072 U4
U 2 1 5BF1B10B
P 6825 3500
F 0 "U4" H 6800 3675 50  0000 L CNN
F 1 "TLV2333/OPA2333" H 6825 3350 50  0000 L CNN
F 2 "Housings_SOIC:SOIC-8_3.9x4.9mm_Pitch1.27mm" H 6825 3500 50  0001 C CNN
F 3 "http://www.ti.com/lit/ds/symlink/tl071.pdf" H 6825 3500 50  0001 C CNN
	2    6825 3500
	1    0    0    -1  
$EndComp
$Comp
L Device:R R9
U 1 1 5BF1B111
P 5950 3400
F 0 "R9" V 5743 3400 50  0000 C CNN
F 1 "10K" V 5834 3400 50  0000 C CNN
F 2 "Resistors_SMD:R_0603_HandSoldering" V 5880 3400 50  0001 C CNN
F 3 "~" H 5950 3400 50  0001 C CNN
	1    5950 3400
	0    1    1    0   
$EndComp
Wire Wire Line
	6525 3600 6525 3900
Wire Wire Line
	6525 3900 7175 3900
Wire Wire Line
	7175 3900 7175 3500
Wire Wire Line
	7175 3500 7125 3500
Wire Wire Line
	7175 3500 7325 3500
Connection ~ 7175 3500
$Comp
L power:GNDA #PWR0132
U 1 1 5BF1B11D
P 6250 3925
F 0 "#PWR0132" H 6250 3675 50  0001 C CNN
F 1 "GNDA" H 6255 3752 50  0000 C CNN
F 2 "" H 6250 3925 50  0001 C CNN
F 3 "" H 6250 3925 50  0001 C CNN
	1    6250 3925
	1    0    0    -1  
$EndComp
$Comp
L power:+3.3VA #PWR0133
U 1 1 5BF1B123
P 6250 2900
F 0 "#PWR0133" H 6250 2750 50  0001 C CNN
F 1 "+3.3VA" H 6265 3073 50  0000 C CNN
F 2 "" H 6250 2900 50  0001 C CNN
F 3 "" H 6250 2900 50  0001 C CNN
	1    6250 2900
	1    0    0    -1  
$EndComp
Wire Wire Line
	6250 2900 6250 2975
$Comp
L power:GNDA #PWR0134
U 1 1 5BF1B12A
P 6725 4000
F 0 "#PWR0134" H 6725 3750 50  0001 C CNN
F 1 "GNDA" H 6730 3827 50  0000 C CNN
F 2 "" H 6725 4000 50  0001 C CNN
F 3 "" H 6725 4000 50  0001 C CNN
	1    6725 4000
	1    0    0    -1  
$EndComp
$Comp
L power:+3.3VA #PWR0135
U 1 1 5BF1B130
P 6725 3075
F 0 "#PWR0135" H 6725 2925 50  0001 C CNN
F 1 "+3.3VA" H 6740 3248 50  0000 C CNN
F 2 "" H 6725 3075 50  0001 C CNN
F 3 "" H 6725 3075 50  0001 C CNN
	1    6725 3075
	1    0    0    -1  
$EndComp
Wire Wire Line
	6725 3075 6725 3200
Wire Wire Line
	6725 3800 6725 4000
$Comp
L Device:C C4
U 1 1 5BF1B138
P 4925 2700
F 0 "C4" V 4673 2700 50  0000 C CNN
F 1 "10pF" V 4764 2700 50  0000 C CNN
F 2 "Capacitors_SMD:C_0603_HandSoldering" H 4963 2550 50  0001 C CNN
F 3 "~" H 4925 2700 50  0001 C CNN
	1    4925 2700
	0    1    1    0   
$EndComp
Wire Wire Line
	4700 3075 4700 2700
Wire Wire Line
	4700 2700 4775 2700
Connection ~ 4700 3075
Wire Wire Line
	5075 2700 5700 2700
Wire Wire Line
	5700 2700 5700 3075
Connection ~ 5700 3075
$Comp
L Device:D_Schottky_x2_Serial_AKC D2
U 1 1 5BF1B144
P 6250 3275
F 0 "D2" V 6296 3354 50  0000 L CNN
F 1 "BAR43SFILM" V 6550 3300 50  0000 L CNN
F 2 "TO_SOT_Packages_SMD:SOT-23_Handsoldering" H 6250 3275 50  0001 C CNN
F 3 "~" H 6250 3275 50  0001 C CNN
	1    6250 3275
	0    -1   -1   0   
$EndComp
Wire Wire Line
	6250 3575 6250 3925
Wire Wire Line
	6100 3400 6100 3625
Wire Wire Line
	6100 3625 6400 3625
Wire Wire Line
	6400 3625 6400 3400
Wire Wire Line
	6400 3400 6450 3400
Wire Wire Line
	6450 3275 6450 3400
Connection ~ 6450 3400
Wire Wire Line
	6450 3400 6525 3400
$Comp
L Device:R R2
U 1 1 5BD1A44B
P 4475 3300
F 0 "R2" V 4268 3300 50  0000 C CNN
F 1 "10K" V 4359 3300 50  0000 C CNN
F 2 "Resistors_SMD:R_0603_HandSoldering" V 4405 3300 50  0001 C CNN
F 3 "~" H 4475 3300 50  0001 C CNN
	1    4475 3300
	0    1    1    0   
$EndComp
$Comp
L Device:R R10
U 1 1 5BD1A8AD
P 4900 3775
F 0 "R10" V 4693 3775 50  0000 C CNN
F 1 "10K" V 4784 3775 50  0000 C CNN
F 2 "Resistors_SMD:R_0603_HandSoldering" V 4830 3775 50  0001 C CNN
F 3 "~" H 4900 3775 50  0001 C CNN
	1    4900 3775
	-1   0    0    1   
$EndComp
$Comp
L Device:R R1
U 1 1 5BD1A997
P 4475 1550
F 0 "R1" V 4268 1550 50  0000 C CNN
F 1 "10K" V 4359 1550 50  0000 C CNN
F 2 "Resistors_SMD:R_0603_HandSoldering" V 4405 1550 50  0001 C CNN
F 3 "~" H 4475 1550 50  0001 C CNN
	1    4475 1550
	0    1    1    0   
$EndComp
$Comp
L Device:R R3
U 1 1 5BD4C721
P 4900 1975
F 0 "R3" V 4693 1975 50  0000 C CNN
F 1 "10K" V 4784 1975 50  0000 C CNN
F 2 "Resistors_SMD:R_0603_HandSoldering" V 4830 1975 50  0001 C CNN
F 3 "~" H 4900 1975 50  0001 C CNN
	1    4900 1975
	-1   0    0    1   
$EndComp
Wire Wire Line
	5100 1550 4900 1550
Wire Wire Line
	4900 1550 4900 1825
Wire Wire Line
	4900 1550 4625 1550
Connection ~ 4900 1550
Wire Wire Line
	4325 1550 3800 1550
Wire Wire Line
	3800 1550 3800 1925
Wire Wire Line
	3750 3625 3750 3300
Wire Wire Line
	3750 3300 4325 3300
Wire Wire Line
	4625 3300 4900 3300
Wire Wire Line
	4900 3625 4900 3300
Connection ~ 4900 3300
Wire Wire Line
	4900 3300 5100 3300
$Comp
L power:GNDA #PWR013
U 1 1 5BDE63DD
P 4900 3975
F 0 "#PWR013" H 4900 3725 50  0001 C CNN
F 1 "GNDA" H 4905 3802 50  0000 C CNN
F 2 "" H 4900 3975 50  0001 C CNN
F 3 "" H 4900 3975 50  0001 C CNN
	1    4900 3975
	1    0    0    -1  
$EndComp
$Comp
L power:GNDA #PWR012
U 1 1 5BDE6463
P 4900 2175
F 0 "#PWR012" H 4900 1925 50  0001 C CNN
F 1 "GNDA" H 4905 2002 50  0000 C CNN
F 2 "" H 4900 2175 50  0001 C CNN
F 3 "" H 4900 2175 50  0001 C CNN
	1    4900 2175
	1    0    0    -1  
$EndComp
Wire Wire Line
	4900 2125 4900 2175
Wire Wire Line
	4900 3925 4900 3975
$Comp
L conn:Conn_01x07 J1
U 1 1 5BEA076F
P 1625 1900
F 0 "J1" H 1545 1375 50  0000 C CNN
F 1 "USART2" H 1545 1466 50  0000 C CNN
F 2 "Pin_Headers:Pin_Header_Angled_1x07_Pitch2.54mm" H 1625 1900 50  0001 C CNN
F 3 "~" H 1625 1900 50  0001 C CNN
	1    1625 1900
	-1   0    0    1   
$EndComp
$Comp
L power:GND #PWR07
U 1 1 5BEA084F
P 1975 2300
F 0 "#PWR07" H 1975 2050 50  0001 C CNN
F 1 "GND" H 1980 2127 50  0000 C CNN
F 2 "" H 1975 2300 50  0001 C CNN
F 3 "" H 1975 2300 50  0001 C CNN
	1    1975 2300
	1    0    0    -1  
$EndComp
Wire Wire Line
	1825 1600 1975 1600
Wire Wire Line
	1825 1700 1975 1700
Wire Wire Line
	1975 1700 1975 2300
Text GLabel 2050 2200 2    50   Input ~ 0
DAC
Text GLabel 2050 2000 2    50   Input ~ 0
ADC1
Text GLabel 2050 1800 2    50   Input ~ 0
ADC2
Wire Wire Line
	1825 1800 2050 1800
Wire Wire Line
	1825 2000 2050 2000
Wire Wire Line
	1825 2200 2050 2200
NoConn ~ 1825 1900
NoConn ~ 1825 2100
$Comp
L conn:Conn_01x05 J2
U 1 1 5BEB72A0
P 1625 3100
F 0 "J2" H 1545 3517 50  0000 C CNN
F 1 "PWRA" H 1545 3426 50  0000 C CNN
F 2 "suf_connector_ncw:CONN_NCW254-05S" H 1625 3100 50  0001 C CNN
F 3 "~" H 1625 3100 50  0001 C CNN
	1    1625 3100
	-1   0    0    -1  
$EndComp
$Comp
L conn:Conn_01x03 J3
U 1 1 5BEB7489
P 1625 4025
F 0 "J3" H 1545 4342 50  0000 C CNN
F 1 "PWRD" H 1545 4251 50  0000 C CNN
F 2 "suf_connector_ncw:CONN_NCW254-03S" H 1625 4025 50  0001 C CNN
F 3 "~" H 1625 4025 50  0001 C CNN
	1    1625 4025
	-1   0    0    -1  
$EndComp
$Comp
L power:GND #PWR04
U 1 1 5BEB7695
P 1925 4200
F 0 "#PWR04" H 1925 3950 50  0001 C CNN
F 1 "GND" H 1930 4027 50  0000 C CNN
F 2 "" H 1925 4200 50  0001 C CNN
F 3 "" H 1925 4200 50  0001 C CNN
	1    1925 4200
	1    0    0    -1  
$EndComp
Wire Wire Line
	1825 4125 1925 4125
Wire Wire Line
	1925 4125 1925 4200
$Comp
L power:+5V #PWR03
U 1 1 5BEB93E5
P 1925 3850
F 0 "#PWR03" H 1925 3700 50  0001 C CNN
F 1 "+5V" H 1940 4023 50  0000 C CNN
F 2 "" H 1925 3850 50  0001 C CNN
F 3 "" H 1925 3850 50  0001 C CNN
	1    1925 3850
	1    0    0    -1  
$EndComp
Wire Wire Line
	1825 3925 1925 3925
Wire Wire Line
	1925 3925 1925 3850
$Comp
L power:GNDA #PWR08
U 1 1 5BEBB352
P 2050 3400
F 0 "#PWR08" H 2050 3150 50  0001 C CNN
F 1 "GNDA" H 2055 3227 50  0000 C CNN
F 2 "" H 2050 3400 50  0001 C CNN
F 3 "" H 2050 3400 50  0001 C CNN
	1    2050 3400
	1    0    0    -1  
$EndComp
$Comp
L power:-15V #PWR01
U 1 1 5BEBB3BA
P 1825 3400
F 0 "#PWR01" H 1825 3500 50  0001 C CNN
F 1 "-15V" H 1840 3573 50  0000 C CNN
F 2 "" H 1825 3400 50  0001 C CNN
F 3 "" H 1825 3400 50  0001 C CNN
	1    1825 3400
	-1   0    0    1   
$EndComp
$Comp
L power:+15V #PWR02
U 1 1 5BEBB44C
P 1925 2800
F 0 "#PWR02" H 1925 2650 50  0001 C CNN
F 1 "+15V" H 1940 2973 50  0000 C CNN
F 2 "" H 1925 2800 50  0001 C CNN
F 3 "" H 1925 2800 50  0001 C CNN
	1    1925 2800
	1    0    0    -1  
$EndComp
$Comp
L power:GNDREF #PWR09
U 1 1 5BEBB4B4
P 2325 3400
F 0 "#PWR09" H 2325 3150 50  0001 C CNN
F 1 "GNDREF" H 2330 3227 50  0000 C CNN
F 2 "" H 2325 3400 50  0001 C CNN
F 3 "" H 2325 3400 50  0001 C CNN
	1    2325 3400
	1    0    0    -1  
$EndComp
Wire Wire Line
	1825 2900 1925 2900
Wire Wire Line
	1925 2900 1925 2800
Wire Wire Line
	1825 3000 2225 3000
Wire Wire Line
	1825 3100 2325 3100
Wire Wire Line
	2325 3100 2325 3400
Wire Wire Line
	1825 3200 2050 3200
Wire Wire Line
	2050 3200 2050 3400
Wire Wire Line
	1825 3300 1825 3400
$Comp
L conn:Conn_01x03 J4
U 1 1 5BEC6BF6
P 1625 4750
F 0 "J4" H 1545 5067 50  0000 C CNN
F 1 "IN" H 1545 4976 50  0000 C CNN
F 2 "suf_connector_ncw:CONN_NCW254-03S" H 1625 4750 50  0001 C CNN
F 3 "~" H 1625 4750 50  0001 C CNN
	1    1625 4750
	-1   0    0    -1  
$EndComp
$Comp
L conn:Conn_01x02 J5
U 1 1 5BEC6D5E
P 1625 5225
F 0 "J5" H 1545 5442 50  0000 C CNN
F 1 "OUT" H 1545 5351 50  0000 C CNN
F 2 "suf_connector_ncw:CONN_NCW254-02S" H 1625 5225 50  0001 C CNN
F 3 "~" H 1625 5225 50  0001 C CNN
	1    1625 5225
	-1   0    0    -1  
$EndComp
Text GLabel 1950 5225 2    50   Input ~ 0
DAC
Wire Wire Line
	1825 5225 1950 5225
Text GLabel 1950 4650 2    50   Input ~ 0
IN_ADC1
Text GLabel 1950 4750 2    50   Input ~ 0
IN_ADC2
Wire Wire Line
	1825 4650 1950 4650
Wire Wire Line
	1825 4750 1950 4750
$Comp
L power:GNDA #PWR05
U 1 1 5BECEB6C
P 1925 4925
F 0 "#PWR05" H 1925 4675 50  0001 C CNN
F 1 "GNDA" H 1930 4752 50  0000 C CNN
F 2 "" H 1925 4925 50  0001 C CNN
F 3 "" H 1925 4925 50  0001 C CNN
	1    1925 4925
	1    0    0    -1  
$EndComp
$Comp
L power:GNDA #PWR06
U 1 1 5BECEBBC
P 1925 5425
F 0 "#PWR06" H 1925 5175 50  0001 C CNN
F 1 "GNDA" H 1930 5252 50  0000 C CNN
F 2 "" H 1925 5425 50  0001 C CNN
F 3 "" H 1925 5425 50  0001 C CNN
	1    1925 5425
	1    0    0    -1  
$EndComp
Wire Wire Line
	1825 4850 1925 4850
Wire Wire Line
	1925 4850 1925 4925
Wire Wire Line
	1825 5325 1925 5325
Wire Wire Line
	1925 5325 1925 5425
$Comp
L Device:L L1
U 1 1 5BED486F
P 3875 4925
F 0 "L1" V 4065 4925 50  0000 C CNN
F 1 "L" V 3974 4925 50  0000 C CNN
F 2 "Resistors_SMD:R_0603_HandSoldering" H 3875 4925 50  0001 C CNN
F 3 "~" H 3875 4925 50  0001 C CNN
	1    3875 4925
	0    -1   -1   0   
$EndComp
$Comp
L power:GND #PWR010
U 1 1 5BED49A8
P 3625 5025
F 0 "#PWR010" H 3625 4775 50  0001 C CNN
F 1 "GND" H 3630 4852 50  0000 C CNN
F 2 "" H 3625 5025 50  0001 C CNN
F 3 "" H 3625 5025 50  0001 C CNN
	1    3625 5025
	1    0    0    -1  
$EndComp
$Comp
L power:GNDA #PWR011
U 1 1 5BED49FB
P 4100 5025
F 0 "#PWR011" H 4100 4775 50  0001 C CNN
F 1 "GNDA" H 4105 4852 50  0000 C CNN
F 2 "" H 4100 5025 50  0001 C CNN
F 3 "" H 4100 5025 50  0001 C CNN
	1    4100 5025
	1    0    0    -1  
$EndComp
Wire Wire Line
	3725 4925 3625 4925
Wire Wire Line
	3625 4925 3625 5025
Wire Wire Line
	4025 4925 4100 4925
Wire Wire Line
	4100 4925 4100 5025
$Comp
L Device:Jumper JP1
U 1 1 5BEDACAE
P 5450 4525
F 0 "JP1" H 5650 4475 50  0000 C CNN
F 1 "MB" H 5225 4475 50  0000 C CNN
F 2 "Pin_Headers:Pin_Header_Straight_1x02_Pitch2.54mm" H 5450 4525 50  0001 C CNN
F 3 "~" H 5450 4525 50  0001 C CNN
	1    5450 4525
	1    0    0    -1  
$EndComp
$Comp
L Device:Jumper JP2
U 1 1 5BEDAD46
P 5450 4725
F 0 "JP2" H 5650 4675 50  0000 C CNN
F 1 "PSD" H 5225 4675 50  0000 C CNN
F 2 "Pin_Headers:Pin_Header_Straight_1x02_Pitch2.54mm" H 5450 4725 50  0001 C CNN
F 3 "~" H 5450 4725 50  0001 C CNN
	1    5450 4725
	1    0    0    -1  
$EndComp
$Comp
L Device:Jumper JP3
U 1 1 5BEDADD8
P 5450 4925
F 0 "JP3" H 5650 4875 50  0000 C CNN
F 1 "PSA" H 5225 4875 50  0000 C CNN
F 2 "Pin_Headers:Pin_Header_Straight_1x02_Pitch2.54mm" H 5450 4925 50  0001 C CNN
F 3 "~" H 5450 4925 50  0001 C CNN
	1    5450 4925
	1    0    0    -1  
$EndComp
Text GLabel 2225 3000 2    50   Input ~ 0
PSA_33V
Text GLabel 1975 1600 2    50   Input ~ 0
MB_33V
Text GLabel 1925 4025 2    50   Input ~ 0
PSD_33V
Wire Wire Line
	1825 4025 1925 4025
Wire Wire Line
	5750 4525 5850 4525
Wire Wire Line
	5850 4525 5850 4725
Wire Wire Line
	5850 4925 5750 4925
Wire Wire Line
	5750 4725 5850 4725
Connection ~ 5850 4725
Wire Wire Line
	5850 4725 5850 4925
$Comp
L power:+3.3VA #PWR014
U 1 1 5BEF79D9
P 5850 4525
F 0 "#PWR014" H 5850 4375 50  0001 C CNN
F 1 "+3.3VA" H 5865 4698 50  0000 C CNN
F 2 "" H 5850 4525 50  0001 C CNN
F 3 "" H 5850 4525 50  0001 C CNN
	1    5850 4525
	1    0    0    -1  
$EndComp
Connection ~ 5850 4525
Text GLabel 5025 4525 0    50   Input ~ 0
MB_33V
Text GLabel 5025 4925 0    50   Input ~ 0
PSA_33V
Text GLabel 5025 4725 0    50   Input ~ 0
PSD_33V
Wire Wire Line
	5025 4525 5150 4525
Wire Wire Line
	5025 4725 5150 4725
Wire Wire Line
	5025 4925 5150 4925
$EndSCHEMATC
